{
    "componentChunkName": "component---node-modules-gatsby-theme-buzzing-src-gatsby-theme-timeline-templates-posts-query-js",
    "path": "/zh-Hant/tags/developer-tools/page/3",
    "result": {"data":{"site":{"siteMetadata":{"title":"Product Hunt 热门","author":"Buzzing.cc","description":"用中文浏览 Product Hunt 热门App，网站和产品","keywords":["buzzing","Product Hunt","热门APP","发现APP"],"siteUrl":"https://ph.buzzing.cc","telegram":"@buzzingcc","iconUrl":"https://ph.buzzing.cc/avatar.png","defaultSocialImageUrl":null,"social":[{"name":"Product Hunt","url":"https://www.producthunt.com/","external":true},{"name":"Buzzing","url":"https://www.buzzing.cc/","external":null}],"menuLinks":[{"name":"每周精选","url":"/issues","external":null}],"disqus":null,"utterances":null,"localize":[{"title":"Buzzing on Product Hunt","description":"See what's buzzing on Product Hunt in your native language","keywords":["Product Hunt","buzzing","explore APP"],"locale":"en","social":{"name":null,"url":null,"external":null},"menuLinks":[{"name":"Weekly Selection","url":"/en/issues","external":null}]},{"title":"Product Hunt 熱門","description":"用中文瀏覽 Product Hunt 熱門App，網站和產品","keywords":["buzzing","Product Hunt","熱門APP","發現APP"],"locale":"zh-Hant","social":null,"menuLinks":[{"name":"每週精選","url":"/zh-Hant/issues","external":null}]},{"title":"Product Hunt 人気の作品","description":"人気のProduct Hunt作品を日本語で閲覧","keywords":["buzzing","Product Hunt"],"locale":"ja","social":null,"menuLinks":[{"name":"毎週の選択","url":"/ja/issues","external":null}]}]}},"tagsGroup":{"group":[{"fieldValue":"3D Printing","totalCount":5},{"fieldValue":"A/B Testing","totalCount":19},{"fieldValue":"APIs","totalCount":157},{"fieldValue":"Action Games","totalCount":2},{"fieldValue":"Ad Blockers","totalCount":4},{"fieldValue":"Adventure Games","totalCount":3},{"fieldValue":"Advertising","totalCount":52},{"fieldValue":"Airbnb","totalCount":2},{"fieldValue":"Alexa Skills","totalCount":3},{"fieldValue":"Amazon","totalCount":15},{"fieldValue":"Analytics","totalCount":196},{"fieldValue":"Android","totalCount":303},{"fieldValue":"Anonymous","totalCount":8},{"fieldValue":"Apple","totalCount":93},{"fieldValue":"Apple TV","totalCount":1},{"fieldValue":"Apple Watch","totalCount":9},{"fieldValue":"Art","totalCount":63},{"fieldValue":"Art Books","totalCount":1},{"fieldValue":"Artificial Intelligence","totalCount":454},{"fieldValue":"Audio and Voice ","totalCount":89},{"fieldValue":"Augmented Reality","totalCount":25},{"fieldValue":"Backpacks","totalCount":1},{"fieldValue":"Baseball","totalCount":1},{"fieldValue":"Basketball","totalCount":3},{"fieldValue":"Batteries","totalCount":1},{"fieldValue":"Beauty","totalCount":3},{"fieldValue":"Biking","totalCount":3},{"fieldValue":"Biohacking","totalCount":14},{"fieldValue":"Blockstack","totalCount":4},{"fieldValue":"Board Games","totalCount":7},{"fieldValue":"Books","totalCount":52},{"fieldValue":"Bots","totalCount":48},{"fieldValue":"Branding","totalCount":44},{"fieldValue":"CSM Tools","totalCount":10},{"fieldValue":"Calendar and Scheduling","totalCount":89},{"fieldValue":"Cannabis","totalCount":2},{"fieldValue":"Card Games","totalCount":5},{"fieldValue":"Cars","totalCount":13},{"fieldValue":"Cats","totalCount":3},{"fieldValue":"Celebrities","totalCount":1},{"fieldValue":"Charity and Giving","totalCount":6},{"fieldValue":"Chrome Extensions","totalCount":175},{"fieldValue":"Coffee","totalCount":4},{"fieldValue":"Comics and Graphic Novels","totalCount":2},{"fieldValue":"Cooking","totalCount":6},{"fieldValue":"Cooking Books","totalCount":3},{"fieldValue":"Couples","totalCount":3},{"fieldValue":"Crafting games","totalCount":1},{"fieldValue":"Crowdfunding","totalCount":50},{"fieldValue":"Crypto","totalCount":184},{"fieldValue":"Custom iPhone Keyboards","totalCount":1},{"fieldValue":"Customer communication","totalCount":107},{"fieldValue":"DJ Khaled","totalCount":1},{"fieldValue":"DJing","totalCount":2},{"fieldValue":"Dating","totalCount":16},{"fieldValue":"Delivery","totalCount":9},{"fieldValue":"Design Books","totalCount":21},{"fieldValue":"Design Tools","totalCount":755},{"fieldValue":"Developer Tools","totalCount":1003},{"fieldValue":"Diversity and Inclusion","totalCount":11},{"fieldValue":"Dogs","totalCount":5},{"fieldValue":"Drinking","totalCount":5},{"fieldValue":"Drones","totalCount":5},{"fieldValue":"Dropbox","totalCount":2},{"fieldValue":"E-Commerce","totalCount":141},{"fieldValue":"Education","totalCount":238},{"fieldValue":"Email","totalCount":83},{"fieldValue":"Email Marketing","totalCount":79},{"fieldValue":"Email Newsletters","totalCount":101},{"fieldValue":"Emoji","totalCount":12},{"fieldValue":"Events","totalCount":41},{"fieldValue":"Facebook","totalCount":21},{"fieldValue":"Facebook Messenger","totalCount":4},{"fieldValue":"Fantasy Games","totalCount":1},{"fieldValue":"Fashion","totalCount":11},{"fieldValue":"FemTech","totalCount":8},{"fieldValue":"Fintech","totalCount":243},{"fieldValue":"Firefox Extensions","totalCount":21},{"fieldValue":"Football","totalCount":2},{"fieldValue":"Free Games","totalCount":25},{"fieldValue":"Freelance","totalCount":42},{"fieldValue":"Funny","totalCount":62},{"fieldValue":"Funny Games","totalCount":10},{"fieldValue":"GIFs","totalCount":5},{"fieldValue":"Games","totalCount":106},{"fieldValue":"GitHub","totalCount":119},{"fieldValue":"Golf","totalCount":1},{"fieldValue":"Google","totalCount":37},{"fieldValue":"Google Home","totalCount":2},{"fieldValue":"Green Tech","totalCount":27},{"fieldValue":"Growth Hacking","totalCount":118},{"fieldValue":"Growth Hacks ","totalCount":20},{"fieldValue":"Hardware","totalCount":34},{"fieldValue":"Health and Fitness","totalCount":199},{"fieldValue":"Hiring and Recruiting","totalCount":100},{"fieldValue":"Home","totalCount":32},{"fieldValue":"Icons","totalCount":30},{"fieldValue":"Indie Games","totalCount":16},{"fieldValue":"Instagram","totalCount":49},{"fieldValue":"Internet of Things","totalCount":47},{"fieldValue":"Investing","totalCount":105},{"fieldValue":"Kanye West","totalCount":2},{"fieldValue":"Kids","totalCount":21},{"fieldValue":"Kindle","totalCount":4},{"fieldValue":"Learn a Language","totalCount":28},{"fieldValue":"Legal","totalCount":18},{"fieldValue":"LinkedIn","totalCount":13},{"fieldValue":"Linux","totalCount":7},{"fieldValue":"Mac","totalCount":142},{"fieldValue":"Mac Menu Bar Apps","totalCount":49},{"fieldValue":"Maker Tools ","totalCount":67},{"fieldValue":"Maps","totalCount":23},{"fieldValue":"Marketing","totalCount":789},{"fieldValue":"Meditation","totalCount":21},{"fieldValue":"Medtech","totalCount":17},{"fieldValue":"Meetings","totalCount":92},{"fieldValue":"Messaging","totalCount":92},{"fieldValue":"Money ","totalCount":68},{"fieldValue":"Movies","totalCount":20},{"fieldValue":"Moving and Storage","totalCount":4},{"fieldValue":"Music","totalCount":78},{"fieldValue":"Netflix","totalCount":7},{"fieldValue":"News","totalCount":58},{"fieldValue":"No-Code","totalCount":167},{"fieldValue":"Nomad Lifestyle","totalCount":48},{"fieldValue":"Note","totalCount":51},{"fieldValue":"On-Demand","totalCount":16},{"fieldValue":"Open Source","totalCount":115},{"fieldValue":"Open World Games","totalCount":1},{"fieldValue":"Outdoors","totalCount":5},{"fieldValue":"PC","totalCount":5},{"fieldValue":"Parenting","totalCount":8},{"fieldValue":"Party","totalCount":5},{"fieldValue":"Payment","totalCount":61},{"fieldValue":"Pets","totalCount":7},{"fieldValue":"Photography","totalCount":67},{"fieldValue":"Photoshop","totalCount":11},{"fieldValue":"Pokemon","totalCount":1},{"fieldValue":"Politics","totalCount":8},{"fieldValue":"Privacy","totalCount":74},{"fieldValue":"Product Hunt","totalCount":33},{"fieldValue":"ProductHunt","totalCount":5102},{"fieldValue":"Productivity","totalCount":1986},{"fieldValue":"Prototyping","totalCount":42},{"fieldValue":"Public Relations","totalCount":6},{"fieldValue":"Puzzle Games","totalCount":8},{"fieldValue":"Quantified Self","totalCount":17},{"fieldValue":"RPGs","totalCount":1},{"fieldValue":"Remote Work Tools","totalCount":173},{"fieldValue":"Robots","totalCount":5},{"fieldValue":"SEO Tools","totalCount":57},{"fieldValue":"SaaS","totalCount":506},{"fieldValue":"Safari Extensions","totalCount":11},{"fieldValue":"Sales","totalCount":129},{"fieldValue":"Sci-fi Games","totalCount":2},{"fieldValue":"Science Books","totalCount":2},{"fieldValue":"Side Projects","totalCount":76},{"fieldValue":"Sketch","totalCount":11},{"fieldValue":"Slack","totalCount":63},{"fieldValue":"Snapchat","totalCount":2},{"fieldValue":"Sneakers and Shoes","totalCount":1},{"fieldValue":"Soccer","totalCount":1},{"fieldValue":"Social Impact ","totalCount":36},{"fieldValue":"Social Media Tools","totalCount":312},{"fieldValue":"Software Engineering","totalCount":122},{"fieldValue":"SoundCloud","totalCount":3},{"fieldValue":"Space","totalCount":7},{"fieldValue":"Sports","totalCount":17},{"fieldValue":"Sports Games","totalCount":3},{"fieldValue":"Spotify","totalCount":16},{"fieldValue":"Spreadsheets","totalCount":25},{"fieldValue":"Squarespace","totalCount":1},{"fieldValue":"Standing Desks","totalCount":2},{"fieldValue":"Startup Books","totalCount":20},{"fieldValue":"Startup Lessons ","totalCount":62},{"fieldValue":"Strategy games","totalCount":7},{"fieldValue":"Surfing","totalCount":2},{"fieldValue":"TV","totalCount":10},{"fieldValue":"Tabletop Games","totalCount":1},{"fieldValue":"Task Management","totalCount":127},{"fieldValue":"Tech","totalCount":1572},{"fieldValue":"Telegram","totalCount":9},{"fieldValue":"Tennis","totalCount":2},{"fieldValue":"Text Editors","totalCount":22},{"fieldValue":"Time Tracking","totalCount":23},{"fieldValue":"Transportation","totalCount":7},{"fieldValue":"Travel","totalCount":70},{"fieldValue":"Twitter","totalCount":66},{"fieldValue":"Typography","totalCount":5},{"fieldValue":"User Experience","totalCount":506},{"fieldValue":"Venture Capital","totalCount":48},{"fieldValue":"Video Streaming","totalCount":106},{"fieldValue":"Virtual Assistants","totalCount":18},{"fieldValue":"Virtual Reality","totalCount":16},{"fieldValue":"Wallpaper","totalCount":6},{"fieldValue":"Wearables","totalCount":17},{"fieldValue":"Weather Apps","totalCount":3},{"fieldValue":"Web App","totalCount":614},{"fieldValue":"Windows","totalCount":29},{"fieldValue":"Wine","totalCount":2},{"fieldValue":"Word Games","totalCount":1},{"fieldValue":"WordPress","totalCount":19},{"fieldValue":"Work In Progress ","totalCount":7},{"fieldValue":"Writing Tools","totalCount":108},{"fieldValue":"YouTube","totalCount":28},{"fieldValue":"Zombie Games","totalCount":1},{"fieldValue":"iMessage Apps","totalCount":3},{"fieldValue":"iPad","totalCount":57},{"fieldValue":"iPhone","totalCount":579},{"fieldValue":"reddit","totalCount":5}]},"allBlogPost":{"nodes":[{"id":"PhPost-278547","excerpt":"A lot happened in 2020. Despite everything, developers coded, learned new stuff, deployed and debugged. Here are a few highlights from a year to remember (or, you know, forget).","slug":"/ph/2020-year-in-review-by-codersrank","title":"2020 Year in Review by CodersRank - How did you code in 2020?","date":"December 18, 2020","dateISO":"2020-12-18T17:21:17.613Z","datetime":"2020-12-18 17:21","tags":["Software Engineering","Developer Tools","Tech","ProductHunt"],"image":null,"imageAlt":null,"__typename":"SocialMediaPost","provider":"Product Hunt","thirdPartyId":"278547","url":"https://www.producthunt.com/posts/2020-year-in-review-by-codersrank?utm_campaign=producthunt-api&utm_medium=api-v2&utm_source=Application%3A+Buzzing+%28ID%3A+41381%29","originalUrl":"https://www.producthunt.com/r/5ad1678eacbe36?utm_campaign=producthunt-api&utm_medium=api-v2&utm_source=Application%3A+Buzzing+%28ID%3A+41381%29","imageRemote":null,"video":{"url":"https://youtu.be/nONLvupqsok","embed":null,"width":null,"height":null},"channel":null,"channelUrl":null,"author":"Tibor Szántai","authorUrl":"https://www.producthunt.com/@tibor_szantai1?utm_campaign=producthunt-api&utm_medium=api-v2&utm_source=Application%3A+Buzzing+%28ID%3A+41381%29","authorImageRemote":null,"authorImage":null,"authorSlug":null,"score":690,"views":null,"sharedCount":null,"likeCount":null,"sharedContent":null,"parent":{"localize":[{"description":"2020年发生了很多事情。尽管如此，开发人员还是编码、学习新知识、部署和调试。以下是一年中值得记住(或者，你知道，忘记)的一些亮点。","tagline":"你在2020年是如何编码的？","locale":"zh"},{"description":"2020年發生了很多事情。儘管如此，開發人員還是編碼、學習新知識、部署和調試。以下是一年中值得記住(或者，你知道，忘記)的一些亮點。","tagline":"你在2020年是如何編碼的？","locale":"zh-Hant"}]}},{"id":"PhPost-277928","excerpt":"Like a fitness tracker for your code. Our contribution analytics empower devs with insight. Let the code speak for itself with dashboards & badges focused on self-improvement & career growth. See where you measure up & translate commits into insights.","slug":"/ph/merico-build","title":"Merico Build - Free analytics to level up your code & career","date":"December 18, 2020","dateISO":"2020-12-18T08:47:54.485Z","datetime":"2020-12-18 08:47","tags":["Productivity","Analytics","Developer Tools","ProductHunt"],"image":null,"imageAlt":null,"__typename":"SocialMediaPost","provider":"Product Hunt","thirdPartyId":"277928","url":"https://www.producthunt.com/posts/merico-build?utm_campaign=producthunt-api&utm_medium=api-v2&utm_source=Application%3A+Buzzing+%28ID%3A+41381%29","originalUrl":"https://www.producthunt.com/r/f70b0be0a71e94?utm_campaign=producthunt-api&utm_medium=api-v2&utm_source=Application%3A+Buzzing+%28ID%3A+41381%29","imageRemote":null,"video":{"url":"https://www.youtube.com/watch?v=YGqCjb6NxII&feature=youtu.be","embed":null,"width":null,"height":null},"channel":null,"channelUrl":null,"author":"Maxim Wheatley","authorUrl":"https://www.producthunt.com/@maxim_wheatley?utm_campaign=producthunt-api&utm_medium=api-v2&utm_source=Application%3A+Buzzing+%28ID%3A+41381%29","authorImageRemote":null,"authorImage":null,"authorSlug":null,"score":1109,"views":null,"sharedCount":null,"likeCount":null,"sharedContent":null,"parent":{"localize":[{"description":"就像代码的健康跟踪器一样。我们的贡献分析为开发人员提供了洞察力。让代码用仪表板和徽章为自己说话，这些仪表板和徽章侧重于自我提升和职业发展。看一看你的衡量标准&把承诺转化为洞察力。","tagline":"免费分析，提升您的代码和职业水平","locale":"zh"},{"description":"就像代碼的健康跟蹤器一樣。我們的貢獻分析爲開發人員提供了洞察力。讓代碼用儀表板和徽章爲自己說話，這些儀表板和徽章側重於自我提升和職業發展。看一看你的衡量標準&把承諾轉化爲洞察力。","tagline":"免費分析，提升您的代碼和職業水平","locale":"zh-Hant"}]}},{"id":"PhPost-278376","excerpt":"An open-source UI component library for building high-quality, accessible design systems and web apps.","slug":"/ph/radix-ui","title":"Radix UI - Open-source UI components for building accessible web apps.","date":"December 18, 2020","dateISO":"2020-12-18T08:47:54.485Z","datetime":"2020-12-18 08:47","tags":["Design Tools","User Experience","Developer Tools","ProductHunt"],"image":null,"imageAlt":null,"__typename":"SocialMediaPost","provider":"Product Hunt","thirdPartyId":"278376","url":"https://www.producthunt.com/posts/radix-ui?utm_campaign=producthunt-api&utm_medium=api-v2&utm_source=Application%3A+Buzzing+%28ID%3A+41381%29","originalUrl":"https://www.producthunt.com/r/797d770f9558c9?utm_campaign=producthunt-api&utm_medium=api-v2&utm_source=Application%3A+Buzzing+%28ID%3A+41381%29","imageRemote":"https://ph-files.imgix.net/f2e0ca5b-42f2-4623-8889-36423c6ccc10.png?auto=format&fit=crop","video":null,"channel":null,"channelUrl":null,"author":"Joe Alongi","authorUrl":"https://www.producthunt.com/@collectedview?utm_campaign=producthunt-api&utm_medium=api-v2&utm_source=Application%3A+Buzzing+%28ID%3A+41381%29","authorImageRemote":null,"authorImage":null,"authorSlug":null,"score":535,"views":null,"sharedCount":null,"likeCount":null,"sharedContent":null,"parent":{"localize":[{"description":"一个开源UI组件库，用于构建高质量、易访问的设计系统和Web应用程序。","tagline":"用于构建具有辅助功能的Web应用程序的开源UI组件。","locale":"zh"},{"description":"一個開源UI組件庫，用於構建高質量、易訪問的設計系統和Web應用程序。","tagline":"用於構建具有輔助功能的Web應用程序的開源UI組件。","locale":"zh-Hant"}]}}]}},"pageContext":{"basePath":"/","pageType":"tag","tag":"Developer Tools","tagsFilter":{"date":{"gt":"2000-12-25T10:54:58.000Z"}},"filter":{"date":{"gt":"2000-12-25T10:54:58.000Z"},"tags":{"eq":"Developer Tools"}},"limit":500,"skip":1000,"total":1003,"totalPages":3,"currentPage":3,"maxWidth":1024,"maxHeight":512,"siteMetadata":null,"locale":"zh-Hant","hrefLang":"zh-Hant","originalPath":"/tags/developer-tools/page/3","dateFormat":"YYYY-MM-DD"}},
    "staticQueryHashes": ["1239077767","2744905544","3025052997","3280999885"]}