{
    "componentChunkName": "component---node-modules-gatsby-theme-buzzing-src-gatsby-theme-timeline-templates-posts-query-js",
    "path": "/tags/saa-s/page/2",
    "result": {"data":{"site":{"siteMetadata":{"title":"Product Hunt 热门","author":"Buzzing.cc","description":"用中文浏览 Product Hunt 热门App，网站和产品","keywords":["buzzing","Product Hunt","热门APP","发现APP"],"siteUrl":"https://ph.buzzing.cc","telegram":"@buzzingcc","iconUrl":"https://ph.buzzing.cc/avatar.png","defaultSocialImageUrl":null,"social":[{"name":"Product Hunt","url":"https://www.producthunt.com/","external":true},{"name":"Buzzing","url":"https://www.buzzing.cc/","external":null}],"menuLinks":[{"name":"每周精选","url":"/issues","external":null}],"disqus":null,"utterances":null,"localize":[{"title":"Buzzing on Product Hunt","description":"See what's buzzing on Product Hunt in your native language","keywords":["Product Hunt","buzzing","explore APP"],"locale":"en","social":{"name":null,"url":null,"external":null},"menuLinks":[{"name":"Weekly Selection","url":"/en/issues","external":null}]},{"title":"Product Hunt 熱門","description":"用中文瀏覽 Product Hunt 熱門App，網站和產品","keywords":["buzzing","Product Hunt","熱門APP","發現APP"],"locale":"zh-Hant","social":null,"menuLinks":[{"name":"每週精選","url":"/zh-Hant/issues","external":null}]},{"title":"Product Hunt 人気の作品","description":"人気のProduct Hunt作品を日本語で閲覧","keywords":["buzzing","Product Hunt"],"locale":"ja","social":null,"menuLinks":[{"name":"毎週の選択","url":"/ja/issues","external":null}]}]}},"tagsGroup":{"group":[{"fieldValue":"3D Printing","totalCount":5},{"fieldValue":"A/B Testing","totalCount":19},{"fieldValue":"APIs","totalCount":157},{"fieldValue":"Action Games","totalCount":2},{"fieldValue":"Ad Blockers","totalCount":4},{"fieldValue":"Adventure Games","totalCount":3},{"fieldValue":"Advertising","totalCount":52},{"fieldValue":"Airbnb","totalCount":2},{"fieldValue":"Alexa Skills","totalCount":3},{"fieldValue":"Amazon","totalCount":15},{"fieldValue":"Analytics","totalCount":196},{"fieldValue":"Android","totalCount":303},{"fieldValue":"Anonymous","totalCount":8},{"fieldValue":"Apple","totalCount":93},{"fieldValue":"Apple TV","totalCount":1},{"fieldValue":"Apple Watch","totalCount":9},{"fieldValue":"Art","totalCount":63},{"fieldValue":"Art Books","totalCount":1},{"fieldValue":"Artificial Intelligence","totalCount":454},{"fieldValue":"Audio and Voice ","totalCount":89},{"fieldValue":"Augmented Reality","totalCount":25},{"fieldValue":"Backpacks","totalCount":1},{"fieldValue":"Baseball","totalCount":1},{"fieldValue":"Basketball","totalCount":3},{"fieldValue":"Batteries","totalCount":1},{"fieldValue":"Beauty","totalCount":3},{"fieldValue":"Biking","totalCount":3},{"fieldValue":"Biohacking","totalCount":14},{"fieldValue":"Blockstack","totalCount":4},{"fieldValue":"Board Games","totalCount":7},{"fieldValue":"Books","totalCount":52},{"fieldValue":"Bots","totalCount":48},{"fieldValue":"Branding","totalCount":44},{"fieldValue":"CSM Tools","totalCount":10},{"fieldValue":"Calendar and Scheduling","totalCount":89},{"fieldValue":"Cannabis","totalCount":2},{"fieldValue":"Card Games","totalCount":5},{"fieldValue":"Cars","totalCount":13},{"fieldValue":"Cats","totalCount":3},{"fieldValue":"Celebrities","totalCount":1},{"fieldValue":"Charity and Giving","totalCount":6},{"fieldValue":"Chrome Extensions","totalCount":175},{"fieldValue":"Coffee","totalCount":4},{"fieldValue":"Comics and Graphic Novels","totalCount":2},{"fieldValue":"Cooking","totalCount":6},{"fieldValue":"Cooking Books","totalCount":3},{"fieldValue":"Couples","totalCount":3},{"fieldValue":"Crafting games","totalCount":1},{"fieldValue":"Crowdfunding","totalCount":50},{"fieldValue":"Crypto","totalCount":184},{"fieldValue":"Custom iPhone Keyboards","totalCount":1},{"fieldValue":"Customer communication","totalCount":107},{"fieldValue":"DJ Khaled","totalCount":1},{"fieldValue":"DJing","totalCount":2},{"fieldValue":"Dating","totalCount":16},{"fieldValue":"Delivery","totalCount":9},{"fieldValue":"Design Books","totalCount":21},{"fieldValue":"Design Tools","totalCount":755},{"fieldValue":"Developer Tools","totalCount":1003},{"fieldValue":"Diversity and Inclusion","totalCount":11},{"fieldValue":"Dogs","totalCount":5},{"fieldValue":"Drinking","totalCount":5},{"fieldValue":"Drones","totalCount":5},{"fieldValue":"Dropbox","totalCount":2},{"fieldValue":"E-Commerce","totalCount":141},{"fieldValue":"Education","totalCount":238},{"fieldValue":"Email","totalCount":83},{"fieldValue":"Email Marketing","totalCount":79},{"fieldValue":"Email Newsletters","totalCount":101},{"fieldValue":"Emoji","totalCount":12},{"fieldValue":"Events","totalCount":41},{"fieldValue":"Facebook","totalCount":21},{"fieldValue":"Facebook Messenger","totalCount":4},{"fieldValue":"Fantasy Games","totalCount":1},{"fieldValue":"Fashion","totalCount":11},{"fieldValue":"FemTech","totalCount":8},{"fieldValue":"Fintech","totalCount":243},{"fieldValue":"Firefox Extensions","totalCount":21},{"fieldValue":"Football","totalCount":2},{"fieldValue":"Free Games","totalCount":25},{"fieldValue":"Freelance","totalCount":42},{"fieldValue":"Funny","totalCount":62},{"fieldValue":"Funny Games","totalCount":10},{"fieldValue":"GIFs","totalCount":5},{"fieldValue":"Games","totalCount":106},{"fieldValue":"GitHub","totalCount":119},{"fieldValue":"Golf","totalCount":1},{"fieldValue":"Google","totalCount":37},{"fieldValue":"Google Home","totalCount":2},{"fieldValue":"Green Tech","totalCount":27},{"fieldValue":"Growth Hacking","totalCount":118},{"fieldValue":"Growth Hacks ","totalCount":20},{"fieldValue":"Hardware","totalCount":34},{"fieldValue":"Health and Fitness","totalCount":199},{"fieldValue":"Hiring and Recruiting","totalCount":100},{"fieldValue":"Home","totalCount":32},{"fieldValue":"Icons","totalCount":30},{"fieldValue":"Indie Games","totalCount":16},{"fieldValue":"Instagram","totalCount":49},{"fieldValue":"Internet of Things","totalCount":47},{"fieldValue":"Investing","totalCount":105},{"fieldValue":"Kanye West","totalCount":2},{"fieldValue":"Kids","totalCount":21},{"fieldValue":"Kindle","totalCount":4},{"fieldValue":"Learn a Language","totalCount":28},{"fieldValue":"Legal","totalCount":18},{"fieldValue":"LinkedIn","totalCount":13},{"fieldValue":"Linux","totalCount":7},{"fieldValue":"Mac","totalCount":142},{"fieldValue":"Mac Menu Bar Apps","totalCount":49},{"fieldValue":"Maker Tools ","totalCount":67},{"fieldValue":"Maps","totalCount":23},{"fieldValue":"Marketing","totalCount":789},{"fieldValue":"Meditation","totalCount":21},{"fieldValue":"Medtech","totalCount":17},{"fieldValue":"Meetings","totalCount":92},{"fieldValue":"Messaging","totalCount":92},{"fieldValue":"Money ","totalCount":68},{"fieldValue":"Movies","totalCount":20},{"fieldValue":"Moving and Storage","totalCount":4},{"fieldValue":"Music","totalCount":78},{"fieldValue":"Netflix","totalCount":7},{"fieldValue":"News","totalCount":58},{"fieldValue":"No-Code","totalCount":167},{"fieldValue":"Nomad Lifestyle","totalCount":48},{"fieldValue":"Note","totalCount":51},{"fieldValue":"On-Demand","totalCount":16},{"fieldValue":"Open Source","totalCount":115},{"fieldValue":"Open World Games","totalCount":1},{"fieldValue":"Outdoors","totalCount":5},{"fieldValue":"PC","totalCount":5},{"fieldValue":"Parenting","totalCount":8},{"fieldValue":"Party","totalCount":5},{"fieldValue":"Payment","totalCount":61},{"fieldValue":"Pets","totalCount":7},{"fieldValue":"Photography","totalCount":67},{"fieldValue":"Photoshop","totalCount":11},{"fieldValue":"Pokemon","totalCount":1},{"fieldValue":"Politics","totalCount":8},{"fieldValue":"Privacy","totalCount":74},{"fieldValue":"Product Hunt","totalCount":33},{"fieldValue":"ProductHunt","totalCount":5102},{"fieldValue":"Productivity","totalCount":1986},{"fieldValue":"Prototyping","totalCount":42},{"fieldValue":"Public Relations","totalCount":6},{"fieldValue":"Puzzle Games","totalCount":8},{"fieldValue":"Quantified Self","totalCount":17},{"fieldValue":"RPGs","totalCount":1},{"fieldValue":"Remote Work Tools","totalCount":173},{"fieldValue":"Robots","totalCount":5},{"fieldValue":"SEO Tools","totalCount":57},{"fieldValue":"SaaS","totalCount":506},{"fieldValue":"Safari Extensions","totalCount":11},{"fieldValue":"Sales","totalCount":129},{"fieldValue":"Sci-fi Games","totalCount":2},{"fieldValue":"Science Books","totalCount":2},{"fieldValue":"Side Projects","totalCount":76},{"fieldValue":"Sketch","totalCount":11},{"fieldValue":"Slack","totalCount":63},{"fieldValue":"Snapchat","totalCount":2},{"fieldValue":"Sneakers and Shoes","totalCount":1},{"fieldValue":"Soccer","totalCount":1},{"fieldValue":"Social Impact ","totalCount":36},{"fieldValue":"Social Media Tools","totalCount":312},{"fieldValue":"Software Engineering","totalCount":122},{"fieldValue":"SoundCloud","totalCount":3},{"fieldValue":"Space","totalCount":7},{"fieldValue":"Sports","totalCount":17},{"fieldValue":"Sports Games","totalCount":3},{"fieldValue":"Spotify","totalCount":16},{"fieldValue":"Spreadsheets","totalCount":25},{"fieldValue":"Squarespace","totalCount":1},{"fieldValue":"Standing Desks","totalCount":2},{"fieldValue":"Startup Books","totalCount":20},{"fieldValue":"Startup Lessons ","totalCount":62},{"fieldValue":"Strategy games","totalCount":7},{"fieldValue":"Surfing","totalCount":2},{"fieldValue":"TV","totalCount":10},{"fieldValue":"Tabletop Games","totalCount":1},{"fieldValue":"Task Management","totalCount":127},{"fieldValue":"Tech","totalCount":1572},{"fieldValue":"Telegram","totalCount":9},{"fieldValue":"Tennis","totalCount":2},{"fieldValue":"Text Editors","totalCount":22},{"fieldValue":"Time Tracking","totalCount":23},{"fieldValue":"Transportation","totalCount":7},{"fieldValue":"Travel","totalCount":70},{"fieldValue":"Twitter","totalCount":66},{"fieldValue":"Typography","totalCount":5},{"fieldValue":"User Experience","totalCount":506},{"fieldValue":"Venture Capital","totalCount":48},{"fieldValue":"Video Streaming","totalCount":106},{"fieldValue":"Virtual Assistants","totalCount":18},{"fieldValue":"Virtual Reality","totalCount":16},{"fieldValue":"Wallpaper","totalCount":6},{"fieldValue":"Wearables","totalCount":17},{"fieldValue":"Weather Apps","totalCount":3},{"fieldValue":"Web App","totalCount":614},{"fieldValue":"Windows","totalCount":29},{"fieldValue":"Wine","totalCount":2},{"fieldValue":"Word Games","totalCount":1},{"fieldValue":"WordPress","totalCount":19},{"fieldValue":"Work In Progress ","totalCount":7},{"fieldValue":"Writing Tools","totalCount":108},{"fieldValue":"YouTube","totalCount":28},{"fieldValue":"Zombie Games","totalCount":1},{"fieldValue":"iMessage Apps","totalCount":3},{"fieldValue":"iPad","totalCount":57},{"fieldValue":"iPhone","totalCount":579},{"fieldValue":"reddit","totalCount":5}]},"allBlogPost":{"nodes":[{"id":"PhPost-278351","excerpt":"Unubo makes it easy for you to track progress by bringing metrics from your favourite tools into one place.","slug":"/ph/unubo-phase-zero","title":"Unubo phase zero - Simplify tracking progress in your startup","date":"December 22, 2020","dateISO":"2020-12-22T13:12:12.300Z","datetime":"2020-12-22 13:12","tags":["Productivity","User Experience","SaaS","Tech","ProductHunt"],"image":null,"imageAlt":null,"__typename":"SocialMediaPost","provider":"Product Hunt","thirdPartyId":"278351","url":"https://www.producthunt.com/posts/unubo-phase-zero?utm_campaign=producthunt-api&utm_medium=api-v2&utm_source=Application%3A+Buzzing+%28ID%3A+41381%29","originalUrl":"https://www.producthunt.com/r/a0a24604f9a9ec?utm_campaign=producthunt-api&utm_medium=api-v2&utm_source=Application%3A+Buzzing+%28ID%3A+41381%29","imageRemote":"https://ph-files.imgix.net/fa5636f5-d216-4d50-9b3e-7228a6829fda.png?auto=format&fit=crop","video":null,"channel":null,"channelUrl":null,"author":"Leandro","authorUrl":"https://www.producthunt.com/@leandro8209?utm_campaign=producthunt-api&utm_medium=api-v2&utm_source=Application%3A+Buzzing+%28ID%3A+41381%29","authorImageRemote":null,"authorImage":null,"authorSlug":null,"score":692,"views":null,"sharedCount":null,"likeCount":null,"sharedContent":null,"parent":{"localize":[{"description":"Unubo通过将您喜爱的工具中的指标集中到一个位置，使您可以轻松跟踪进度。","tagline":"简化对创业过程的跟踪","locale":"zh"},{"description":"Unubo通過將您喜愛的工具中的指標集中到一個位置，使您可以輕鬆跟蹤進度。","tagline":"簡化對創業過程的跟蹤","locale":"zh-Hant"}]}},{"id":"PhPost-278869","excerpt":"- Team & Tasks&nbsp; - Notes & docs&nbsp; - Discussions&nbsp; - Feedback & Roadmap&nbsp; - Knowledge base","slug":"/ph/due-work-2-0","title":"Due.work 2.0 - Team collaboration, feedback & knowledge base","date":"December 22, 2020","dateISO":"2020-12-22T10:51:50.744Z","datetime":"2020-12-22 10:51","tags":["Web App","Productivity","Task Management","Note","Marketing","Growth Hacking","SaaS","Tech","ProductHunt"],"image":null,"imageAlt":null,"__typename":"SocialMediaPost","provider":"Product Hunt","thirdPartyId":"278869","url":"https://www.producthunt.com/posts/due-work-2-0?utm_campaign=producthunt-api&utm_medium=api-v2&utm_source=Application%3A+Buzzing+%28ID%3A+41381%29","originalUrl":"https://www.producthunt.com/r/561e35f53f9e7f?utm_campaign=producthunt-api&utm_medium=api-v2&utm_source=Application%3A+Buzzing+%28ID%3A+41381%29","imageRemote":"https://ph-files.imgix.net/bca43f41-2103-496c-9da7-4c5341b542e4.gif?auto=format&fit=crop","video":null,"channel":null,"channelUrl":null,"author":"Kevin William David","authorUrl":"https://www.producthunt.com/@kevin?utm_campaign=producthunt-api&utm_medium=api-v2&utm_source=Application%3A+Buzzing+%28ID%3A+41381%29","authorImageRemote":null,"authorImage":null,"authorSlug":null,"score":1110,"views":null,"sharedCount":null,"likeCount":null,"sharedContent":null,"parent":{"localize":[{"description":"-团队和任务&nbsp；-笔记和文档&nbsp；-讨论&nbsp；-反馈和路线图&nbsp；-知识库","tagline":"团队协作、反馈和知识库","locale":"zh"},{"description":"-團隊和任務&nbsp；-筆記和文檔&nbsp；-討論&nbsp；-反饋和路線圖&nbsp；-知識庫","tagline":"團隊協作、反饋和知識庫","locale":"zh-Hant"}]}},{"id":"PhPost-278839","excerpt":"RetentionX translates your data into clear actions. Take the best business decisions based on AI-driven data analysis and replace the power of an entire data science team with just one, easy-to-use tool.","slug":"/ph/retentionx","title":"RetentionX - AI for Shopify","date":"December 22, 2020","dateISO":"2020-12-22T09:34:19.099Z","datetime":"2020-12-22 09:34","tags":["Analytics","SaaS","Artificial Intelligence","E-Commerce","ProductHunt"],"image":null,"imageAlt":null,"__typename":"SocialMediaPost","provider":"Product Hunt","thirdPartyId":"278839","url":"https://www.producthunt.com/posts/retentionx?utm_campaign=producthunt-api&utm_medium=api-v2&utm_source=Application%3A+Buzzing+%28ID%3A+41381%29","originalUrl":"https://www.producthunt.com/r/012140f0c013b8?utm_campaign=producthunt-api&utm_medium=api-v2&utm_source=Application%3A+Buzzing+%28ID%3A+41381%29","imageRemote":null,"video":{"url":"https://www.youtube.com/watch?v=eEwWxG4x58o","embed":null,"width":null,"height":null},"channel":null,"channelUrl":null,"author":"Chris Messina","authorUrl":"https://www.producthunt.com/@chrismessina?utm_campaign=producthunt-api&utm_medium=api-v2&utm_source=Application%3A+Buzzing+%28ID%3A+41381%29","authorImageRemote":null,"authorImage":null,"authorSlug":null,"score":2228,"views":null,"sharedCount":null,"likeCount":null,"sharedContent":null,"parent":{"localize":[{"description":"RetentionX将您的数据转换为清晰的操作。基于人工智能驱动的数据分析做出最佳业务决策，并用一个简单易用的工具取代整个数据科学团队的力量。","tagline":"AI代表Shopify","locale":"zh"},{"description":"RetentionX將您的數據轉換爲清晰的操作。基於人工智能驅動的數據分析做出最佳業務決策，並用一個簡單易用的工具取代整個數據科學團隊的力量。","tagline":"AI代表Shopify","locale":"zh-Hant"}]}},{"id":"PhPost-278630","excerpt":"Fuel fund showcases selected startups to 1000s of handpicked investors in the US. Think of it as a fund's demo day but asynchronous and massively scalable. When a startup lists on wantfuel.com, we forward their details to almost 5000+ investors on our rolodex.","slug":"/ph/fuel-fund","title":"Fuel Fund - List your startup and get discovered by 1000s of investors","date":"December 20, 2020","dateISO":"2020-12-20T14:34:07.553Z","datetime":"2020-12-20 14:34","tags":["Web App","Investing","Crowdfunding","SaaS","ProductHunt"],"image":null,"imageAlt":null,"__typename":"SocialMediaPost","provider":"Product Hunt","thirdPartyId":"278630","url":"https://www.producthunt.com/posts/fuel-fund?utm_campaign=producthunt-api&utm_medium=api-v2&utm_source=Application%3A+Buzzing+%28ID%3A+41381%29","originalUrl":"https://www.producthunt.com/r/d7f94a571199aa?utm_campaign=producthunt-api&utm_medium=api-v2&utm_source=Application%3A+Buzzing+%28ID%3A+41381%29","imageRemote":"https://ph-files.imgix.net/be444bf0-ea67-4f69-a19a-e69b1cde7320.png?auto=format&fit=crop","video":null,"channel":null,"channelUrl":null,"author":"Sid","authorUrl":"https://www.producthunt.com/@fullofsid?utm_campaign=producthunt-api&utm_medium=api-v2&utm_source=Application%3A+Buzzing+%28ID%3A+41381%29","authorImageRemote":null,"authorImage":null,"authorSlug":null,"score":313,"views":null,"sharedCount":null,"likeCount":null,"sharedContent":null,"parent":{"localize":[{"description":"燃料基金向美国数以千计精挑细选的投资者展示精选的初创企业。可以将其视为基金的演示日，但不同步且可大规模扩展。当一家初创公司在wantfuel.com上上市时，我们会将他们的详细信息转发给我们的rolodex上的近5000多名投资者。","tagline":"列出你的创业公司，被成千上万的投资者发现","locale":"zh"},{"description":"燃料基金向美國數以千計精挑細選的投資者展示精選的初創企業。可以將其視爲基金的演示日，但不同步且可大規模擴展。當一家初創公司在wantfuel.com上上市時，我們會將他們的詳細信息轉發給我們的rolodex上的近5000多名投資者。","tagline":"列出你的創業公司，被成千上萬的投資者發現","locale":"zh-Hant"}]}},{"id":"PhPost-277412","excerpt":"Introducing Accountable 2.0 - the all new way to become HIPAA compliant. Designed to simplify the entire process of achieving and managing HIPAA compliance, from HIPAA training to policy management. And did we mention $100k HIPAA breach guarantee?","slug":"/ph/accountable-2-0","title":"Accountable 2.0 - HIPAA compliance management platform and $100k guarantee","date":"December 19, 2020","dateISO":"2020-12-19T07:34:06.622Z","datetime":"2020-12-19 07:34","tags":["Web App","Health and Fitness","SaaS","Tech","Medtech","ProductHunt"],"image":null,"imageAlt":null,"__typename":"SocialMediaPost","provider":"Product Hunt","thirdPartyId":"277412","url":"https://www.producthunt.com/posts/accountable-2-0?utm_campaign=producthunt-api&utm_medium=api-v2&utm_source=Application%3A+Buzzing+%28ID%3A+41381%29","originalUrl":"https://www.producthunt.com/r/7fc7278f9fcb4c?utm_campaign=producthunt-api&utm_medium=api-v2&utm_source=Application%3A+Buzzing+%28ID%3A+41381%29","imageRemote":"https://ph-files.imgix.net/2539716c-d359-4861-affe-3594c496a0ae.jpeg?auto=format&fit=crop","video":null,"channel":null,"channelUrl":null,"author":"Kevin Henry","authorUrl":"https://www.producthunt.com/@kevinleehenry?utm_campaign=producthunt-api&utm_medium=api-v2&utm_source=Application%3A+Buzzing+%28ID%3A+41381%29","authorImageRemote":null,"authorImage":null,"authorSlug":null,"score":187,"views":null,"sharedCount":null,"likeCount":null,"sharedContent":null,"parent":{"localize":[{"description":"引入负责任的2.0-成为HIPAA兼容的全新方式。旨在简化实现和管理HIPAA合规性的整个流程，从HIPAA培训到策略管理。我们有没有提到10万美元的HIPAA违约担保？","tagline":"HIPAA合规管理平台和10万美元担保","locale":"zh"},{"description":"引入負責任的2.0-成爲HIPAA兼容的全新方式。旨在簡化實現和管理HIPAA合規性的整個流程，從HIPAA培訓到策略管理。我們有沒有提到10萬美元的HIPAA違約擔保？","tagline":"HIPAA合規管理平臺和10萬美元擔保","locale":"zh-Hant"}]}},{"id":"PhPost-278421","excerpt":"Chocolate is sweet but SaaS surprises are sweeter - and we have two a day! At the stroke of midnight SaaS Advent Calendar unlocks an exclusive deal from well-established SaaS companies as well as a free SaaS in beta that needs valuable feedback.","slug":"/ph/saas-advent-calendar-2020","title":"SaaS Advent Calendar 2020 - SaaSanta is coming to town and he's not bringing coal","date":"December 18, 2020","dateISO":"2020-12-18T08:47:54.485Z","datetime":"2020-12-18 08:47","tags":["Web App","SaaS","ProductHunt"],"image":null,"imageAlt":null,"__typename":"SocialMediaPost","provider":"Product Hunt","thirdPartyId":"278421","url":"https://www.producthunt.com/posts/saas-advent-calendar-2020?utm_campaign=producthunt-api&utm_medium=api-v2&utm_source=Application%3A+Buzzing+%28ID%3A+41381%29","originalUrl":"https://www.producthunt.com/r/582f4384a8a2de?utm_campaign=producthunt-api&utm_medium=api-v2&utm_source=Application%3A+Buzzing+%28ID%3A+41381%29","imageRemote":"https://ph-files.imgix.net/1880c5ee-45d8-45fe-8921-260d1c96ea68.png?auto=format&fit=crop","video":null,"channel":null,"channelUrl":null,"author":"Alex. Delivet","authorUrl":"https://www.producthunt.com/@alexd?utm_campaign=producthunt-api&utm_medium=api-v2&utm_source=Application%3A+Buzzing+%28ID%3A+41381%29","authorImageRemote":null,"authorImage":null,"authorSlug":null,"score":442,"views":null,"sharedCount":null,"likeCount":null,"sharedContent":null,"parent":{"localize":[{"description":"巧克力是甜的，但SaaS惊喜更甜-我们每天吃两个！午夜钟声敲响之际，SaaS Advent Calendar解锁了来自知名SaaS公司的独家交易，以及需要宝贵反馈的免费测试版SaaS。","tagline":"萨亚圣诞老人要来镇上，他不会带煤来","locale":"zh"},{"description":"巧克力是甜的，但SaaS驚喜更甜-我們每天喫兩個！午夜鐘聲敲響之際，SaaS Advent Calendar解鎖了來自知名SaaS公司的獨家交易，以及需要寶貴反饋的免費測試版SaaS。","tagline":"薩亞聖誕老人要來鎮上，他不會帶煤來","locale":"zh-Hant"}]}}]}},"pageContext":{"basePath":"/","pageType":"tag","tag":"SaaS","tagsFilter":{"date":{"gt":"2000-12-25T10:54:58.000Z"}},"filter":{"date":{"gt":"2000-12-25T10:54:58.000Z"},"tags":{"eq":"SaaS"}},"limit":500,"skip":500,"total":506,"totalPages":2,"currentPage":2,"maxWidth":1024,"maxHeight":512,"siteMetadata":null,"locale":"zh","hrefLang":"zh-Hans","originalPath":"/tags/saa-s/page/2","dateFormat":"YYYY-MM-DD"}},
    "staticQueryHashes": ["1239077767","2744905544","3025052997","3280999885"]}