{"componentChunkName":"component---node-modules-gatsby-theme-buzzing-src-gatsby-theme-timeline-templates-posts-query-js","path":"/tags/productivity/page/3","result":{"data":{"site":{"siteMetadata":{"title":"Product Hunt 热门","author":"Buzzing.cc","description":"用中文浏览 Product Hunt 热门App，网站和产品","keywords":["buzzing","Product Hunt","热门APP","发现APP"],"siteUrl":"https://ph.buzzing.cc","telegram":"@buzzingcc","iconUrl":"https://ph.buzzing.cc/avatar.png","defaultSocialImageUrl":null,"social":[{"name":"Product Hunt","url":"https://www.producthunt.com/","external":true},{"name":"Buzzing","url":"https://www.buzzing.cc/","external":null}],"menuLinks":[{"name":"每周精选","url":"/issues","external":null}],"disqus":null,"utterances":null,"localize":[{"title":"Buzzing on Product Hunt","description":"See what's buzzing on Product Hunt in your native language","keywords":["Product Hunt","buzzing","explore APP"],"locale":"en","social":{"name":null,"url":null,"external":null},"menuLinks":[{"name":"Weekly Selection","url":"/en/issues","external":null}]},{"title":"Product Hunt 熱門","description":"用中文瀏覽 Product Hunt 熱門App，網站和產品","keywords":["buzzing","Product Hunt","熱門APP","發現APP"],"locale":"zh-Hant","social":null,"menuLinks":[{"name":"每週精選","url":"/zh-Hant/issues","external":null}]},{"title":"Product Hunt 人気の作品","description":"人気のProduct Hunt作品を日本語で閲覧","keywords":["buzzing","Product Hunt"],"locale":"ja","social":null,"menuLinks":[{"name":"毎週の選択","url":"/ja/issues","external":null}]}]}},"tagsGroup":{"group":[{"fieldValue":"3D Printing","totalCount":4},{"fieldValue":"A/B Testing","totalCount":13},{"fieldValue":"APIs","totalCount":87},{"fieldValue":"Action Games","totalCount":2},{"fieldValue":"Ad Blockers","totalCount":3},{"fieldValue":"Adventure Games","totalCount":2},{"fieldValue":"Advertising","totalCount":26},{"fieldValue":"Airbnb","totalCount":1},{"fieldValue":"Alexa Skills","totalCount":2},{"fieldValue":"Amazon","totalCount":8},{"fieldValue":"Analytics","totalCount":107},{"fieldValue":"Android","totalCount":157},{"fieldValue":"Anonymous","totalCount":3},{"fieldValue":"Apple","totalCount":53},{"fieldValue":"Apple TV","totalCount":1},{"fieldValue":"Apple Watch","totalCount":6},{"fieldValue":"Art","totalCount":22},{"fieldValue":"Artificial Intelligence","totalCount":230},{"fieldValue":"Audio and Voice ","totalCount":40},{"fieldValue":"Augmented Reality","totalCount":15},{"fieldValue":"Backpacks","totalCount":1},{"fieldValue":"Batteries","totalCount":1},{"fieldValue":"Beauty","totalCount":2},{"fieldValue":"Biking","totalCount":1},{"fieldValue":"Biohacking","totalCount":5},{"fieldValue":"Blockstack","totalCount":2},{"fieldValue":"Board Games","totalCount":6},{"fieldValue":"Books","totalCount":24},{"fieldValue":"Bots","totalCount":26},{"fieldValue":"Branding","totalCount":23},{"fieldValue":"CSM Tools","totalCount":2},{"fieldValue":"Calendar and Scheduling","totalCount":53},{"fieldValue":"Cannabis","totalCount":1},{"fieldValue":"Card Games","totalCount":2},{"fieldValue":"Cars","totalCount":3},{"fieldValue":"Charity and Giving","totalCount":3},{"fieldValue":"Chrome Extensions","totalCount":82},{"fieldValue":"Coffee","totalCount":4},{"fieldValue":"Comics and Graphic Novels","totalCount":1},{"fieldValue":"Cooking","totalCount":5},{"fieldValue":"Cooking Books","totalCount":3},{"fieldValue":"Couples","totalCount":2},{"fieldValue":"Crafting games","totalCount":1},{"fieldValue":"Crowdfunding","totalCount":26},{"fieldValue":"Crypto","totalCount":63},{"fieldValue":"Custom iPhone Keyboards","totalCount":1},{"fieldValue":"Customer communication","totalCount":48},{"fieldValue":"DJing","totalCount":1},{"fieldValue":"Dating","totalCount":7},{"fieldValue":"Delivery","totalCount":5},{"fieldValue":"Design Books","totalCount":12},{"fieldValue":"Design Tools","totalCount":367},{"fieldValue":"Developer Tools","totalCount":489},{"fieldValue":"Diversity and Inclusion","totalCount":7},{"fieldValue":"Dogs","totalCount":3},{"fieldValue":"Drinking","totalCount":4},{"fieldValue":"Drones","totalCount":4},{"fieldValue":"Dropbox","totalCount":2},{"fieldValue":"E-Commerce","totalCount":69},{"fieldValue":"Education","totalCount":118},{"fieldValue":"Email","totalCount":46},{"fieldValue":"Email Marketing","totalCount":36},{"fieldValue":"Email Newsletters","totalCount":54},{"fieldValue":"Emoji","totalCount":7},{"fieldValue":"Events","totalCount":21},{"fieldValue":"Facebook","totalCount":7},{"fieldValue":"Facebook Messenger","totalCount":4},{"fieldValue":"Fashion","totalCount":7},{"fieldValue":"FemTech","totalCount":5},{"fieldValue":"Fintech","totalCount":120},{"fieldValue":"Firefox Extensions","totalCount":10},{"fieldValue":"Free Games","totalCount":11},{"fieldValue":"Freelance","totalCount":19},{"fieldValue":"Funny","totalCount":36},{"fieldValue":"Funny Games","totalCount":4},{"fieldValue":"GIFs","totalCount":4},{"fieldValue":"Games","totalCount":60},{"fieldValue":"GitHub","totalCount":58},{"fieldValue":"Google","totalCount":22},{"fieldValue":"Google Home","totalCount":1},{"fieldValue":"Green Tech","totalCount":13},{"fieldValue":"Growth Hacking","totalCount":68},{"fieldValue":"Growth Hacks ","totalCount":9},{"fieldValue":"Hardware","totalCount":17},{"fieldValue":"Health and Fitness","totalCount":107},{"fieldValue":"Hiring and Recruiting","totalCount":43},{"fieldValue":"Home","totalCount":16},{"fieldValue":"Icons","totalCount":18},{"fieldValue":"Indie Games","totalCount":12},{"fieldValue":"Instagram","totalCount":25},{"fieldValue":"Internet of Things","totalCount":31},{"fieldValue":"Investing","totalCount":45},{"fieldValue":"Kids","totalCount":9},{"fieldValue":"Kindle","totalCount":3},{"fieldValue":"Learn a Language","totalCount":20},{"fieldValue":"Legal","totalCount":11},{"fieldValue":"LinkedIn","totalCount":7},{"fieldValue":"Linux","totalCount":5},{"fieldValue":"Mac","totalCount":81},{"fieldValue":"Mac Menu Bar Apps","totalCount":25},{"fieldValue":"Maker Tools ","totalCount":35},{"fieldValue":"Maps","totalCount":13},{"fieldValue":"Marketing","totalCount":422},{"fieldValue":"Meditation","totalCount":12},{"fieldValue":"Medtech","totalCount":12},{"fieldValue":"Meetings","totalCount":42},{"fieldValue":"Messaging","totalCount":47},{"fieldValue":"Money ","totalCount":28},{"fieldValue":"Movies","totalCount":12},{"fieldValue":"Moving and Storage","totalCount":1},{"fieldValue":"Music","totalCount":39},{"fieldValue":"Netflix","totalCount":5},{"fieldValue":"News","totalCount":35},{"fieldValue":"No-Code","totalCount":67},{"fieldValue":"Nomad Lifestyle","totalCount":23},{"fieldValue":"Note","totalCount":21},{"fieldValue":"On-Demand","totalCount":5},{"fieldValue":"Open Source","totalCount":53},{"fieldValue":"Open World Games","totalCount":1},{"fieldValue":"Outdoors","totalCount":3},{"fieldValue":"PC","totalCount":4},{"fieldValue":"Parenting","totalCount":2},{"fieldValue":"Party","totalCount":5},{"fieldValue":"Payment","totalCount":32},{"fieldValue":"Pets","totalCount":3},{"fieldValue":"Photography","totalCount":37},{"fieldValue":"Photoshop","totalCount":6},{"fieldValue":"Politics","totalCount":7},{"fieldValue":"Privacy","totalCount":43},{"fieldValue":"Product Hunt","totalCount":19},{"fieldValue":"ProductHunt","totalCount":2607},{"fieldValue":"Productivity","totalCount":1008},{"fieldValue":"Prototyping","totalCount":28},{"fieldValue":"Public Relations","totalCount":3},{"fieldValue":"Puzzle Games","totalCount":5},{"fieldValue":"Quantified Self","totalCount":7},{"fieldValue":"Remote Work Tools","totalCount":89},{"fieldValue":"Robots","totalCount":4},{"fieldValue":"SEO Tools","totalCount":29},{"fieldValue":"SaaS","totalCount":244},{"fieldValue":"Safari Extensions","totalCount":4},{"fieldValue":"Sales","totalCount":63},{"fieldValue":"Sci-fi Games","totalCount":1},{"fieldValue":"Science Books","totalCount":2},{"fieldValue":"Side Projects","totalCount":46},{"fieldValue":"Sketch","totalCount":8},{"fieldValue":"Slack","totalCount":31},{"fieldValue":"Snapchat","totalCount":1},{"fieldValue":"Social Impact ","totalCount":20},{"fieldValue":"Social Media Tools","totalCount":172},{"fieldValue":"Software Engineering","totalCount":65},{"fieldValue":"SoundCloud","totalCount":1},{"fieldValue":"Space","totalCount":4},{"fieldValue":"Sports","totalCount":8},{"fieldValue":"Sports Games","totalCount":1},{"fieldValue":"Spotify","totalCount":8},{"fieldValue":"Spreadsheets","totalCount":12},{"fieldValue":"Squarespace","totalCount":1},{"fieldValue":"Standing Desks","totalCount":1},{"fieldValue":"Startup Books","totalCount":10},{"fieldValue":"Startup Lessons ","totalCount":20},{"fieldValue":"Strategy games","totalCount":4},{"fieldValue":"Surfing","totalCount":2},{"fieldValue":"TV","totalCount":7},{"fieldValue":"Tabletop Games","totalCount":1},{"fieldValue":"Task Management","totalCount":70},{"fieldValue":"Tech","totalCount":768},{"fieldValue":"Telegram","totalCount":3},{"fieldValue":"Text Editors","totalCount":12},{"fieldValue":"Time Tracking","totalCount":17},{"fieldValue":"Travel","totalCount":35},{"fieldValue":"Twitter","totalCount":27},{"fieldValue":"Typography","totalCount":4},{"fieldValue":"User Experience","totalCount":266},{"fieldValue":"Venture Capital","totalCount":20},{"fieldValue":"Video Streaming","totalCount":57},{"fieldValue":"Virtual Assistants","totalCount":11},{"fieldValue":"Virtual Reality","totalCount":10},{"fieldValue":"Wallpaper","totalCount":2},{"fieldValue":"Wearables","totalCount":8},{"fieldValue":"Weather Apps","totalCount":2},{"fieldValue":"Web App","totalCount":323},{"fieldValue":"Windows","totalCount":17},{"fieldValue":"Wine","totalCount":1},{"fieldValue":"Word Games","totalCount":1},{"fieldValue":"WordPress","totalCount":14},{"fieldValue":"Work In Progress ","totalCount":3},{"fieldValue":"Writing Tools","totalCount":59},{"fieldValue":"YouTube","totalCount":10},{"fieldValue":"iMessage Apps","totalCount":2},{"fieldValue":"iPad","totalCount":34},{"fieldValue":"iPhone","totalCount":322},{"fieldValue":"reddit","totalCount":4}]},"allBlogPost":{"nodes":[{"id":"PhPost-f371cac5-70e0-57ea-9006-a25dd91e956e","excerpt":"Planning to take time off this holiday season? The automatic out-of-office calendar from Clockwise makes it effortless to coordinate with your team. Simply mark your calendar OOO and Clockwise will sync your availability to the shared team calendar.","slug":"/ph/automatic-out-of-office-calendar-1","title":"Automatic out-of-office calendar - Just mark your calendar as OOO, we take care of the rest","date":"December 18, 2020","dateISO":"2020-12-18T16:01:57.550Z","datetime":"2020-12-18 16:01","tags":["Productivity","Calendar and Scheduling","ProductHunt"],"image":null,"imageAlt":null,"__typename":"SocialMediaPost","provider":"Product Hunt","thirdPartyId":"f371cac5-70e0-57ea-9006-a25dd91e956e","url":"https://www.producthunt.com/posts/automatic-out-of-office-calendar-1?utm_campaign=producthunt-api&utm_medium=api-v2&utm_source=Application%3A+Buzzing+%28ID%3A+41381%29","originalUrl":"https://www.producthunt.com/r/a2bf817a512673?utm_campaign=producthunt-api&utm_medium=api-v2&utm_source=Application%3A+Buzzing+%28ID%3A+41381%29","imageRemote":"https://ph-files.imgix.net/b6bab100-cf15-4a29-9ac5-7c0d602446e7.png?auto=format&fit=crop","video":null,"channel":null,"channelUrl":null,"author":"John Lilly","authorUrl":"https://www.producthunt.com/@johnolilly1?utm_campaign=producthunt-api&utm_medium=api-v2&utm_source=Application%3A+Buzzing+%28ID%3A+41381%29","authorImageRemote":null,"authorImage":null,"authorSlug":null,"score":358,"views":null,"sharedCount":null,"likeCount":null,"sharedContent":null,"parent":{"localize":[{"description":"这个假期你打算请假吗？来自顺时针的自动外出日历使您可以毫不费力地与您的团队进行协调。只需将您的日历标记为OOO，顺时针就会将您的可用性同步到共享的团队日历。","tagline":"只需将您的日历标记为OOO，我们会处理睡觉","locale":"zh"},{"description":"這個假期你打算請假嗎？來自順時針的自動外出日曆使您可以毫不費力地與您的團隊進行協調。只需將您的日曆標記爲OOO，順時針就會將您的可用性同步到共享的團隊日曆。","tagline":"只需將您的日曆標記爲OOO，我們會處理睡覺","locale":"zh-Hant"}]}},{"id":"PhPost-5aafbe68-d949-5dce-942c-8e61060bf7e1","excerpt":"Axel is a virtual assistant who helps you develop a culture of transparency and ownership in your team. You set up the right 1:1 and weekly check-in from templates in a few clicks. Our secret sauce: no need to add another tool, everything is done in Slack.","slug":"/ph/axel-1","title":"Axel - Powerful rituals to drive your team to success.","date":"December 18, 2020","dateISO":"2020-12-18T15:46:35.639Z","datetime":"2020-12-18 15:46","tags":["Slack","Productivity","Calendar and Scheduling","Virtual Assistants","ProductHunt"],"image":null,"imageAlt":null,"__typename":"SocialMediaPost","provider":"Product Hunt","thirdPartyId":"5aafbe68-d949-5dce-942c-8e61060bf7e1","url":"https://www.producthunt.com/posts/axel-1?utm_campaign=producthunt-api&utm_medium=api-v2&utm_source=Application%3A+Buzzing+%28ID%3A+41381%29","originalUrl":"https://www.producthunt.com/r/63411478c2907b?utm_campaign=producthunt-api&utm_medium=api-v2&utm_source=Application%3A+Buzzing+%28ID%3A+41381%29","imageRemote":null,"video":{"url":"https://youtu.be/DEEy136GNNs","embed":null,"width":null,"height":null},"channel":null,"channelUrl":null,"author":"Chris Messina","authorUrl":"https://www.producthunt.com/@chrismessina?utm_campaign=producthunt-api&utm_medium=api-v2&utm_source=Application%3A+Buzzing+%28ID%3A+41381%29","authorImageRemote":null,"authorImage":null,"authorSlug":null,"score":492,"views":null,"sharedCount":null,"likeCount":null,"sharedContent":null,"parent":{"localize":[{"description":"Axel是一个虚拟助手，帮助您在团队中培养透明和主人翁的文化。只需单击几下，即可从模板设置正确的1：1和每周签到。我们的秘诀：不需要添加其他工具，一切都在Slake中完成。","tagline":"推动您的团队走向成功的强大仪式。","locale":"zh"},{"description":"Axel是一個虛擬助手，幫助您在團隊中培養透明和主人翁的文化。只需單擊幾下，即可從模板設置正確的1：1和每週簽到。我們的祕訣：不需要添加其他工具，一切都在Slake中完成。","tagline":"推動您的團隊走向成功的強大儀式。","locale":"zh-Hant"}]}},{"id":"PhPost-55f35a28-4205-5b5d-95c4-4fa151af581f","excerpt":"Ratio is an Android home screen designed to turn mindless distraction into mindful productivity. 3 screens with everything you need on unlock. No more endless switching between apps, use social media less and supercharge your productivity.","slug":"/ph/ratio-4","title":"Ratio 4 - Welcome to your new home screen","date":"December 18, 2020","dateISO":"2020-12-18T15:46:35.639Z","datetime":"2020-12-18 15:46","tags":["Android","Productivity","User Experience","Tech","ProductHunt"],"image":null,"imageAlt":null,"__typename":"SocialMediaPost","provider":"Product Hunt","thirdPartyId":"55f35a28-4205-5b5d-95c4-4fa151af581f","url":"https://www.producthunt.com/posts/ratio-4?utm_campaign=producthunt-api&utm_medium=api-v2&utm_source=Application%3A+Buzzing+%28ID%3A+41381%29","originalUrl":"https://www.producthunt.com/r/a1009505f3ff67?utm_campaign=producthunt-api&utm_medium=api-v2&utm_source=Application%3A+Buzzing+%28ID%3A+41381%29","imageRemote":"https://ph-files.imgix.net/7e1ab611-1504-4432-be5c-4a2a8afbddfc.jpeg?auto=format&fit=crop","video":null,"channel":null,"channelUrl":null,"author":"Ben Jebara","authorUrl":"https://www.producthunt.com/@benjebara?utm_campaign=producthunt-api&utm_medium=api-v2&utm_source=Application%3A+Buzzing+%28ID%3A+41381%29","authorImageRemote":null,"authorImage":null,"authorSlug":null,"score":1034,"views":null,"sharedCount":null,"likeCount":null,"sharedContent":null,"parent":{"localize":[{"description":"Ratio是一款Android主屏幕，旨在将无意识的分心工作转化为专注的工作效率。3个屏幕，解锁时有您需要的一切。不再在应用程序之间没完没了地切换，减少使用社交媒体，提高您的工作效率。","tagline":"欢迎使用您的新主屏幕","locale":"zh"},{"description":"Ratio是一款Android主屏幕，旨在將無意識的分心工作轉化爲專注的工作效率。3個屏幕，解鎖時有您需要的一切。不再在應用程序之間沒完沒了地切換，減少使用社交媒體，提高您的工作效率。","tagline":"歡迎使用您的新主屏幕","locale":"zh-Hant"}]}},{"id":"PhPost-af64296c-4b75-5136-b0a7-38923674cb85","excerpt":"/^[a-z0-9_-]{3,16}$/ is a podcast where Eugene Kudashev shares some tips and tricks and useful regular expressions for day-to-day work","slug":"/ph/a-z0-9_-3-16","title":"/^[a-z0-9_-]{3,16}$/ - A podcast about regular expressions","date":"December 18, 2020","dateISO":"2020-12-18T08:47:54.485Z","datetime":"2020-12-18 08:47","tags":["Productivity","Education","ProductHunt"],"image":null,"imageAlt":null,"__typename":"SocialMediaPost","provider":"Product Hunt","thirdPartyId":"af64296c-4b75-5136-b0a7-38923674cb85","url":"https://www.producthunt.com/posts/a-z0-9_-3-16?utm_campaign=producthunt-api&utm_medium=api-v2&utm_source=Application%3A+Buzzing+%28ID%3A+41381%29","originalUrl":"https://www.producthunt.com/r/8f0364eb08e7c3?utm_campaign=producthunt-api&utm_medium=api-v2&utm_source=Application%3A+Buzzing+%28ID%3A+41381%29","imageRemote":null,"video":{"url":"https://youtu.be/1PK0N1bcVO8","embed":null,"width":null,"height":null},"channel":null,"channelUrl":null,"author":"Vincent Denise","authorUrl":"https://www.producthunt.com/@yesnoornext?utm_campaign=producthunt-api&utm_medium=api-v2&utm_source=Application%3A+Buzzing+%28ID%3A+41381%29","authorImageRemote":null,"authorImage":null,"authorSlug":null,"score":246,"views":null,"sharedCount":null,"likeCount":null,"sharedContent":null,"parent":{"localize":[{"description":"/^[a-z0-9_-]{3，16}$/是一个播客，尤金·库达舍夫(Eugene Kudashev)在其中分享一些技巧和技巧，以及日常工作中有用的正则表达式","tagline":"关于正则表达式的播客","locale":"zh"},{"description":"/^[a-z0-9_-]{3，16}$/是一個播客，尤金·庫達舍夫(Eugene Kudashev)在其中分享一些技巧和技巧，以及日常工作中有用的正則表達式","tagline":"關於正則表達式的播客","locale":"zh-Hant"}]}},{"id":"PhPost-2c54afa8-915d-5a40-bd93-7c34ec3b496f","excerpt":"dLinks lets you build a decentralized profile on Web 3.0 in seconds. Built using Handshake and Sia: Handshake names are decentralized domains that no one can block access to. Skynet offers decentralized backend hosting that cannot be taken down.","slug":"/ph/dlinks","title":"dLinks - An easy to use, no-code site builder for Web 3.0","date":"December 18, 2020","dateISO":"2020-12-18T08:47:54.485Z","datetime":"2020-12-18 08:47","tags":["Productivity","Crypto","Privacy","Tech","No-Code","ProductHunt"],"image":null,"imageAlt":null,"__typename":"SocialMediaPost","provider":"Product Hunt","thirdPartyId":"2c54afa8-915d-5a40-bd93-7c34ec3b496f","url":"https://www.producthunt.com/posts/dlinks?utm_campaign=producthunt-api&utm_medium=api-v2&utm_source=Application%3A+Buzzing+%28ID%3A+41381%29","originalUrl":"https://www.producthunt.com/r/ff5ae2b459fc18?utm_campaign=producthunt-api&utm_medium=api-v2&utm_source=Application%3A+Buzzing+%28ID%3A+41381%29","imageRemote":null,"video":{"url":"https://www.youtube.com/watch?v=YV7hyce7wxg&feature=youtu.be","embed":null,"width":null,"height":null},"channel":null,"channelUrl":null,"author":"Neeraj Thakur","authorUrl":"https://www.producthunt.com/@neerajt4?utm_campaign=producthunt-api&utm_medium=api-v2&utm_source=Application%3A+Buzzing+%28ID%3A+41381%29","authorImageRemote":null,"authorImage":null,"authorSlug":null,"score":473,"views":null,"sharedCount":null,"likeCount":null,"sharedContent":null,"parent":{"localize":[{"description":"dLinks允许您在几秒钟内在Web 3.0上构建分散配置文件。使用握手和SIA：握手名称是分散的域，任何人都不能通过挡路访问。天网提供无法关闭的分散式后端托管。","tagline":"一个易于使用的、无代码的Web3.0站点生成器","locale":"zh"},{"description":"dLinks允許您在幾秒鐘內在Web 3.0上構建分散配置文件。使用握手和SIA：握手名稱是分散的域，任何人都不能通過擋路訪問。天網提供無法關閉的分散式後端託管。","tagline":"一個易於使用的、無代碼的Web3.0站點生成器","locale":"zh-Hant"}]}},{"id":"PhPost-036f6a48-5ed5-5c05-b865-feb6e701cc0a","excerpt":"The fastest way to the smartest Google Search. 'Picked by LINER' is the most powerful assistant that will take your Google Search to the next level. Do not scan through all results. View only the pages selected by LINER. Available as browser extensions.","slug":"/ph/improved-google-search-by-liner","title":"Improved Google Search by LINER - The smartest Google Search assistant powered by highlights","date":"December 18, 2020","dateISO":"2020-12-18T08:47:54.485Z","datetime":"2020-12-18 08:47","tags":["Productivity","Google","ProductHunt"],"image":null,"imageAlt":null,"__typename":"SocialMediaPost","provider":"Product Hunt","thirdPartyId":"036f6a48-5ed5-5c05-b865-feb6e701cc0a","url":"https://www.producthunt.com/posts/improved-google-search-by-liner?utm_campaign=producthunt-api&utm_medium=api-v2&utm_source=Application%3A+Buzzing+%28ID%3A+41381%29","originalUrl":"https://www.producthunt.com/r/6eba92337c2dad?utm_campaign=producthunt-api&utm_medium=api-v2&utm_source=Application%3A+Buzzing+%28ID%3A+41381%29","imageRemote":"https://ph-files.imgix.net/2f90d327-bdbf-4219-9bfe-10b6b781de98.gif?auto=format&fit=crop","video":null,"channel":null,"channelUrl":null,"author":"Kevin William David","authorUrl":"https://www.producthunt.com/@kevin?utm_campaign=producthunt-api&utm_medium=api-v2&utm_source=Application%3A+Buzzing+%28ID%3A+41381%29","authorImageRemote":null,"authorImage":null,"authorSlug":null,"score":461,"views":null,"sharedCount":null,"likeCount":null,"sharedContent":null,"parent":{"localize":[{"description":"实现最智能谷歌搜索的最快方式。“由班轮挑选”是最强大的助手，它将把你的谷歌搜索提升到一个新的水平。不要浏览所有结果。仅查看由线框选择的页面。作为浏览器扩展提供。","tagline":"最智能的谷歌搜索助手，由高亮显示提供支持","locale":"zh"},{"description":"實現最智能谷歌搜索的最快方式。“由班輪挑選”是最強大的助手，它將把你的谷歌搜索提升到一個新的水平。不要瀏覽所有結果。僅查看由線框選擇的頁面。作爲瀏覽器擴展提供。","tagline":"最智能的谷歌搜索助手，由高亮顯示提供支持","locale":"zh-Hant"}]}},{"id":"PhPost-42a2546a-3921-5e61-a066-86b9eb652175","excerpt":"Kudos is the easiest way to celebrate wins with your team and align everyone around your core values. Create reward systems and encourage a culture of positive feedback across the company, right from your favorite chat platform.","slug":"/ph/kudos-by-dailybot","title":"Kudos by DailyBot - Give positive feedback and align team+culture with Kudos.","date":"December 18, 2020","dateISO":"2020-12-18T08:47:54.485Z","datetime":"2020-12-18 08:47","tags":["Productivity","Remote Work Tools","ProductHunt"],"image":null,"imageAlt":null,"__typename":"SocialMediaPost","provider":"Product Hunt","thirdPartyId":"42a2546a-3921-5e61-a066-86b9eb652175","url":"https://www.producthunt.com/posts/kudos-by-dailybot?utm_campaign=producthunt-api&utm_medium=api-v2&utm_source=Application%3A+Buzzing+%28ID%3A+41381%29","originalUrl":"https://www.producthunt.com/r/e026bce599c9a0?utm_campaign=producthunt-api&utm_medium=api-v2&utm_source=Application%3A+Buzzing+%28ID%3A+41381%29","imageRemote":null,"video":{"url":"https://www.youtube.com/watch?v=1IV5JNXbThk","embed":null,"width":null,"height":null},"channel":null,"channelUrl":null,"author":"Mauricio Morales","authorUrl":"https://www.producthunt.com/@maomorales?utm_campaign=producthunt-api&utm_medium=api-v2&utm_source=Application%3A+Buzzing+%28ID%3A+41381%29","authorImageRemote":null,"authorImage":null,"authorSlug":null,"score":264,"views":null,"sharedCount":null,"likeCount":null,"sharedContent":null,"parent":{"localize":[{"description":"表扬是与你的团队一起庆祝胜利，并让每个人都围绕着你的核心价值观取得胜利的最简单的方式。创建奖励系统，鼓励整个公司的积极反馈文化，就在你最喜欢的聊天平台上。","tagline":"给予积极反馈，使团队+文化与Kudos保持一致。","locale":"zh"},{"description":"表揚是與你的團隊一起慶祝勝利，並讓每個人都圍繞着你的核心價值觀取得勝利的最簡單的方式。創建獎勵系統，鼓勵整個公司的積極反饋文化，就在你最喜歡的聊天平臺上。","tagline":"給予積極反饋，使團隊+文化與Kudos保持一致。","locale":"zh-Hant"}]}},{"id":"PhPost-c403996d-d356-5149-9bd0-846d92f7aec9","excerpt":"Like a fitness tracker for your code. Our contribution analytics empower devs with insight. Let the code speak for itself with dashboards & badges focused on self-improvement & career growth. See where you measure up & translate commits into insights.","slug":"/ph/merico-build","title":"Merico Build - Free analytics to level up your code & career","date":"December 18, 2020","dateISO":"2020-12-18T08:47:54.485Z","datetime":"2020-12-18 08:47","tags":["Productivity","Analytics","Developer Tools","ProductHunt"],"image":null,"imageAlt":null,"__typename":"SocialMediaPost","provider":"Product Hunt","thirdPartyId":"c403996d-d356-5149-9bd0-846d92f7aec9","url":"https://www.producthunt.com/posts/merico-build?utm_campaign=producthunt-api&utm_medium=api-v2&utm_source=Application%3A+Buzzing+%28ID%3A+41381%29","originalUrl":"https://www.producthunt.com/r/f70b0be0a71e94?utm_campaign=producthunt-api&utm_medium=api-v2&utm_source=Application%3A+Buzzing+%28ID%3A+41381%29","imageRemote":null,"video":{"url":"https://www.youtube.com/watch?v=YGqCjb6NxII&feature=youtu.be","embed":null,"width":null,"height":null},"channel":null,"channelUrl":null,"author":"Maxim Wheatley","authorUrl":"https://www.producthunt.com/@maxim_wheatley?utm_campaign=producthunt-api&utm_medium=api-v2&utm_source=Application%3A+Buzzing+%28ID%3A+41381%29","authorImageRemote":null,"authorImage":null,"authorSlug":null,"score":1109,"views":null,"sharedCount":null,"likeCount":null,"sharedContent":null,"parent":{"localize":[{"description":"就像代码的健康跟踪器一样。我们的贡献分析为开发人员提供了洞察力。让代码用仪表板和徽章为自己说话，这些仪表板和徽章侧重于自我提升和职业发展。看一看你的衡量标准&把承诺转化为洞察力。","tagline":"免费分析，提升您的代码和职业水平","locale":"zh"},{"description":"就像代碼的健康跟蹤器一樣。我們的貢獻分析爲開發人員提供了洞察力。讓代碼用儀表板和徽章爲自己說話，這些儀表板和徽章側重於自我提升和職業發展。看一看你的衡量標準&把承諾轉化爲洞察力。","tagline":"免費分析，提升您的代碼和職業水平","locale":"zh-Hant"}]}}]}},"pageContext":{"basePath":"/","pageType":"tag","tag":"Productivity","tagsFilter":{"date":{"gt":"2000-12-25T10:54:58.000Z"}},"filter":{"date":{"gt":"2000-12-25T10:54:58.000Z"},"tags":{"eq":"Productivity"}},"limit":500,"skip":1000,"total":1008,"totalPages":3,"currentPage":3,"maxWidth":1024,"maxHeight":512,"siteMetadata":null,"locale":"zh","hrefLang":"zh-Hans","originalPath":"/tags/productivity/page/3","dateFormat":"YYYY-MM-DD"}},"staticQueryHashes":["1239077767","2744905544","3025052997","3280999885"]}