{
    "componentChunkName": "component---node-modules-gatsby-theme-buzzing-src-gatsby-theme-timeline-templates-posts-query-js",
    "path": "/ja/page/22",
    "result": {"data":{"site":{"siteMetadata":{"title":"Product Hunt 热门","author":"Buzzing.cc","description":"用中文浏览 Product Hunt 热门App，网站和产品","keywords":["buzzing","Product Hunt","热门APP","发现APP"],"siteUrl":"https://ph.buzzing.cc","telegram":"@buzzingcc","iconUrl":"https://ph.buzzing.cc/avatar.png","defaultSocialImageUrl":null,"social":[{"name":"Product Hunt","url":"https://www.producthunt.com/","external":true},{"name":"Buzzing","url":"https://www.buzzing.cc/","external":null}],"menuLinks":[{"name":"每周精选","url":"/issues","external":null}],"disqus":null,"utterances":null,"localize":[{"title":"Buzzing on Product Hunt","description":"See what's buzzing on Product Hunt in your native language","keywords":["Product Hunt","buzzing","explore APP"],"locale":"en","social":{"name":null,"url":null,"external":null},"menuLinks":[{"name":"Weekly Selection","url":"/en/issues","external":null}]},{"title":"Product Hunt 熱門","description":"用中文瀏覽 Product Hunt 熱門App，網站和產品","keywords":["buzzing","Product Hunt","熱門APP","發現APP"],"locale":"zh-Hant","social":null,"menuLinks":[{"name":"每週精選","url":"/zh-Hant/issues","external":null}]},{"title":"Product Hunt 人気の作品","description":"人気のProduct Hunt作品を日本語で閲覧","keywords":["buzzing","Product Hunt"],"locale":"ja","social":null,"menuLinks":[{"name":"毎週の選択","url":"/ja/issues","external":null}]}]}},"tagsGroup":{"group":[{"fieldValue":"3D Printing","totalCount":2},{"fieldValue":"APIs","totalCount":25},{"fieldValue":"Adventure Games","totalCount":1},{"fieldValue":"Advertising","totalCount":9},{"fieldValue":"Airbnb","totalCount":1},{"fieldValue":"Amazon","totalCount":3},{"fieldValue":"Analytics","totalCount":33},{"fieldValue":"Android","totalCount":47},{"fieldValue":"Anonymous","totalCount":1},{"fieldValue":"Apple","totalCount":11},{"fieldValue":"Apple Watch","totalCount":1},{"fieldValue":"Art","totalCount":11},{"fieldValue":"Artificial Intelligence","totalCount":78},{"fieldValue":"Audio and Voice ","totalCount":18},{"fieldValue":"Augmented Reality","totalCount":2},{"fieldValue":"Basketball","totalCount":1},{"fieldValue":"Beauty","totalCount":1},{"fieldValue":"Biking","totalCount":1},{"fieldValue":"Biohacking","totalCount":4},{"fieldValue":"Books","totalCount":8},{"fieldValue":"Bots","totalCount":8},{"fieldValue":"Branding","totalCount":8},{"fieldValue":"CSM Tools","totalCount":5},{"fieldValue":"Calendar and Scheduling","totalCount":14},{"fieldValue":"Cannabis","totalCount":1},{"fieldValue":"Cars","totalCount":3},{"fieldValue":"Charity and Giving","totalCount":3},{"fieldValue":"Chrome Extensions","totalCount":33},{"fieldValue":"Coffee","totalCount":2},{"fieldValue":"Cooking","totalCount":1},{"fieldValue":"Crowdfunding","totalCount":14},{"fieldValue":"Crypto","totalCount":69},{"fieldValue":"Customer communication","totalCount":17},{"fieldValue":"DJing","totalCount":1},{"fieldValue":"Dating","totalCount":1},{"fieldValue":"Design Books","totalCount":6},{"fieldValue":"Design Tools","totalCount":138},{"fieldValue":"Developer Tools","totalCount":209},{"fieldValue":"Dogs","totalCount":2},{"fieldValue":"E-Commerce","totalCount":50},{"fieldValue":"Education","totalCount":41},{"fieldValue":"Email","totalCount":16},{"fieldValue":"Email Marketing","totalCount":13},{"fieldValue":"Email Newsletters","totalCount":20},{"fieldValue":"Emoji","totalCount":1},{"fieldValue":"Events","totalCount":10},{"fieldValue":"Facebook","totalCount":3},{"fieldValue":"Fashion","totalCount":2},{"fieldValue":"FemTech","totalCount":1},{"fieldValue":"Fintech","totalCount":53},{"fieldValue":"Football","totalCount":1},{"fieldValue":"Freelance","totalCount":11},{"fieldValue":"Funny","totalCount":12},{"fieldValue":"Funny Games","totalCount":1},{"fieldValue":"Games","totalCount":16},{"fieldValue":"GitHub","totalCount":33},{"fieldValue":"Google","totalCount":7},{"fieldValue":"Green Tech","totalCount":3},{"fieldValue":"Growth Hacking","totalCount":15},{"fieldValue":"Growth Hacks ","totalCount":5},{"fieldValue":"Hardware","totalCount":13},{"fieldValue":"Health and Fitness","totalCount":28},{"fieldValue":"Hiring and Recruiting","totalCount":31},{"fieldValue":"Home","totalCount":10},{"fieldValue":"Icons","totalCount":7},{"fieldValue":"Indie Games","totalCount":1},{"fieldValue":"Instagram","totalCount":10},{"fieldValue":"Internet of Things","totalCount":8},{"fieldValue":"Investing","totalCount":33},{"fieldValue":"Kids","totalCount":2},{"fieldValue":"Learn a Language","totalCount":4},{"fieldValue":"Legal","totalCount":2},{"fieldValue":"Mac","totalCount":22},{"fieldValue":"Mac Menu Bar Apps","totalCount":10},{"fieldValue":"Maker Tools ","totalCount":8},{"fieldValue":"Maps","totalCount":4},{"fieldValue":"Marketing","totalCount":129},{"fieldValue":"Meditation","totalCount":2},{"fieldValue":"Meetings","totalCount":18},{"fieldValue":"Messaging","totalCount":9},{"fieldValue":"Money ","totalCount":25},{"fieldValue":"Movies","totalCount":4},{"fieldValue":"Moving and Storage","totalCount":1},{"fieldValue":"Music","totalCount":15},{"fieldValue":"Netflix","totalCount":1},{"fieldValue":"News","totalCount":13},{"fieldValue":"No-Code","totalCount":53},{"fieldValue":"Nomad Lifestyle","totalCount":9},{"fieldValue":"Note","totalCount":6},{"fieldValue":"Open Source","totalCount":29},{"fieldValue":"Outdoors","totalCount":1},{"fieldValue":"Parenting","totalCount":1},{"fieldValue":"Payment","totalCount":5},{"fieldValue":"Pets","totalCount":1},{"fieldValue":"Photography","totalCount":14},{"fieldValue":"Photoshop","totalCount":1},{"fieldValue":"Politics","totalCount":1},{"fieldValue":"Privacy","totalCount":7},{"fieldValue":"Product Hunt","totalCount":3},{"fieldValue":"ProductHunt","totalCount":1052},{"fieldValue":"Productivity","totalCount":381},{"fieldValue":"Prototyping","totalCount":5},{"fieldValue":"Public Relations","totalCount":1},{"fieldValue":"Quantified Self","totalCount":1},{"fieldValue":"Remote Work Tools","totalCount":32},{"fieldValue":"SEO Tools","totalCount":9},{"fieldValue":"SaaS","totalCount":94},{"fieldValue":"Safari Extensions","totalCount":3},{"fieldValue":"Sales","totalCount":30},{"fieldValue":"Side Projects","totalCount":10},{"fieldValue":"Sketch","totalCount":1},{"fieldValue":"Slack","totalCount":12},{"fieldValue":"Sneakers and Shoes","totalCount":1},{"fieldValue":"Social Impact ","totalCount":4},{"fieldValue":"Social Media Tools","totalCount":47},{"fieldValue":"Software Engineering","totalCount":15},{"fieldValue":"SoundCloud","totalCount":2},{"fieldValue":"Sports","totalCount":8},{"fieldValue":"Spotify","totalCount":4},{"fieldValue":"Spreadsheets","totalCount":6},{"fieldValue":"Startup Books","totalCount":8},{"fieldValue":"Startup Lessons ","totalCount":13},{"fieldValue":"TV","totalCount":1},{"fieldValue":"Task Management","totalCount":12},{"fieldValue":"Tech","totalCount":298},{"fieldValue":"Telegram","totalCount":3},{"fieldValue":"Tennis","totalCount":1},{"fieldValue":"Text Editors","totalCount":4},{"fieldValue":"Time Tracking","totalCount":2},{"fieldValue":"Transportation","totalCount":3},{"fieldValue":"Travel","totalCount":8},{"fieldValue":"Twitter","totalCount":14},{"fieldValue":"Typography","totalCount":1},{"fieldValue":"User Experience","totalCount":51},{"fieldValue":"Venture Capital","totalCount":8},{"fieldValue":"Video Streaming","totalCount":20},{"fieldValue":"Virtual Assistants","totalCount":5},{"fieldValue":"Virtual Reality","totalCount":2},{"fieldValue":"Wallpaper","totalCount":1},{"fieldValue":"Wearables","totalCount":2},{"fieldValue":"Weather Apps","totalCount":1},{"fieldValue":"Web App","totalCount":93},{"fieldValue":"Windows","totalCount":3},{"fieldValue":"WordPress","totalCount":2},{"fieldValue":"Writing Tools","totalCount":18},{"fieldValue":"YouTube","totalCount":9},{"fieldValue":"iMessage Apps","totalCount":1},{"fieldValue":"iPad","totalCount":6},{"fieldValue":"iPhone","totalCount":92}]},"allBlogPost":{"nodes":[{"id":"PhPost-314316","excerpt":"No need to know any technical stuff to be able to use NFTs! • Share NFTs that are in your wallet in a beautiful way • Browse the most popular, trending or recently sold NFTs • View your NFTs in AR mode • Learn about NFTs with the Help section","slug":"/ph/nfts","title":"NFTs - View and share crypto NFTs in AR","date":"October 01, 2021","dateISO":"2021-10-01T07:07:18.123Z","datetime":"2021-10-01 07:07","tags":["iPhone","Crypto","Artificial Intelligence","ProductHunt"],"image":null,"imageAlt":null,"__typename":"SocialMediaPost","provider":"Product Hunt","thirdPartyId":"314316","url":"https://www.producthunt.com/posts/nfts?utm_campaign=producthunt-api&utm_medium=api-v2&utm_source=Application%3A+Buzzing+%28ID%3A+41381%29","originalUrl":"https://www.producthunt.com/r/1b3ea691db0980?utm_campaign=producthunt-api&utm_medium=api-v2&utm_source=Application%3A+Buzzing+%28ID%3A+41381%29","imageRemote":"https://ph-files.imgix.net/0f78a38d-5a55-4ed3-af06-9ffd0a3186b9.jpeg?auto=format","video":null,"channel":null,"channelUrl":null,"author":"Palak Zatakia","authorUrl":"https://www.producthunt.com/@palakzatakia?utm_campaign=producthunt-api&utm_medium=api-v2&utm_source=Application%3A+Buzzing+%28ID%3A+41381%29","authorImageRemote":null,"authorImage":null,"authorSlug":null,"score":63,"views":null,"sharedCount":null,"likeCount":null,"sharedContent":null,"parent":{"localize":[{"description":"技術的な知識がなくても、NFTを使うことができます。- お財布の中のNFTを美しくシェア - 人気のNFT、トレンドのNFT、最近販売されたNFTを閲覧 - ARモードでNFTを表示 - ヘルプセクションでNFTについて学ぶ","tagline":"ARでの暗号化されたNFTの表示と共有","locale":"ja"},{"description":"不需要知道任何技术性的东西就能使用NFTs! - 以漂亮的方式分享你钱包里的NFT - 浏览最受欢迎、最流行或最近售出的NFT - 以AR模式查看你的NFT - 通过帮助部分了解NFT","tagline":"在AR中查看和分享加密的NFTs","locale":"zh"},{"description":"不需要知道任何技術性的東西就能使用NFTs! - 以漂亮的方式分享你錢包裏的NFT - 瀏覽最受歡迎、最流行或最近售出的NFT - 以AR模式查看你的NFT - 通過幫助部分了解NFT","tagline":"在AR中查看和分享加密的NFTs","locale":"zh-Hant"}]}},{"id":"PhPost-313918","excerpt":"NextDrop is the best resource to discover all upcoming NFT projects on Ethereum, Solana, and other chains. Visit the website or subscribe to the newsletter to receive every day a list of upcoming drops. Postlaunch? Hourly stats for hundreds of projects!","slug":"/ph/nextdrop","title":"NextDrop - All the upcoming NFT drops and more","date":"October 01, 2021","dateISO":"2021-10-01T03:24:12.613Z","datetime":"2021-10-01 03:24","tags":["Art","Crypto","ProductHunt"],"image":null,"imageAlt":null,"__typename":"SocialMediaPost","provider":"Product Hunt","thirdPartyId":"313918","url":"https://www.producthunt.com/posts/nextdrop?utm_campaign=producthunt-api&utm_medium=api-v2&utm_source=Application%3A+Buzzing+%28ID%3A+41381%29","originalUrl":"https://www.producthunt.com/r/1d47479b3d1467?utm_campaign=producthunt-api&utm_medium=api-v2&utm_source=Application%3A+Buzzing+%28ID%3A+41381%29","imageRemote":"https://ph-files.imgix.net/05c96010-ab31-44c3-aecb-f0cbaca3022a.png?auto=format","video":null,"channel":null,"channelUrl":null,"author":"Davide Di Cillo","authorUrl":"https://www.producthunt.com/@davide_di_cillo?utm_campaign=producthunt-api&utm_medium=api-v2&utm_source=Application%3A+Buzzing+%28ID%3A+41381%29","authorImageRemote":null,"authorImage":null,"authorSlug":null,"score":95,"views":null,"sharedCount":null,"likeCount":null,"sharedContent":null,"parent":{"localize":[{"description":"NextDropは、Ethereum、Solana、およびその他のチェーン上で今後行われるすべてのNFTプロジェクトを発見するための最高のリソースです。ウェブサイトにアクセスするか、ニュースレターを購読すると、今後のドロップのリストを毎日受け取ることができます。ポストローンチ？何百ものプロジェクトの1時間ごとの統計情報です","tagline":"今後のNFTの展開などについて","locale":"ja"},{"description":"NextDrop是发现Ethereum、Solana和其他链上所有即将到来的NFT项目的最佳资源。访问网站或订阅新闻通讯，每天都能收到即将发布的项目列表。发售后？上百个项目的每小时统计资料!","tagline":"所有即将到来的NFT下降和更多","locale":"zh"},{"description":"NextDrop是發現Ethereum、Solana和其他鏈上所有即將到來的NFT項目的最佳資源。訪問網站或訂閱新聞通訊，每天都能收到即將發佈的項目列表。發售後？上百個項目的每小時統計資料!","tagline":"所有即將到來的NFT下降和更多","locale":"zh-Hant"}]}}]}},"pageContext":{"basePath":"/","pageType":"home","tagsFilter":{"date":{"gt":"2000-12-25T10:54:58.000Z"}},"filter":{"date":{"gt":"2000-12-25T10:54:58.000Z"}},"limit":50,"skip":1050,"totalPages":22,"total":1052,"currentPage":22,"maxWidth":1024,"maxHeight":512,"siteMetadata":null,"locale":"ja","hrefLang":"ja-JA","originalPath":"/page/22","dateFormat":"YYYY-MM-DD"}},
    "staticQueryHashes": ["1239077767","2744905544","3025052997","3280999885"]}