{
    "componentChunkName": "component---node-modules-gatsby-theme-buzzing-src-gatsby-theme-timeline-templates-posts-query-js",
    "path": "/en/page/23",
    "result": {"data":{"site":{"siteMetadata":{"title":"Product Hunt 热门","author":"Buzzing.cc","description":"用中文浏览 Product Hunt 热门App，网站和产品","keywords":["buzzing","Product Hunt","热门APP","发现APP"],"siteUrl":"https://ph.buzzing.cc","telegram":"@buzzingcc","iconUrl":"https://ph.buzzing.cc/avatar.png","defaultSocialImageUrl":null,"social":[{"name":"Product Hunt","url":"https://www.producthunt.com/","external":true},{"name":"Buzzing","url":"https://www.buzzing.cc/","external":null}],"menuLinks":[{"name":"每周精选","url":"/issues","external":null}],"disqus":null,"utterances":null,"localize":[{"title":"Buzzing on Product Hunt","description":"See what's buzzing on Product Hunt in your native language","keywords":["Product Hunt","buzzing","explore APP"],"locale":"en","social":{"name":null,"url":null,"external":null},"menuLinks":[{"name":"Weekly Selection","url":"/en/issues","external":null}]},{"title":"Product Hunt 熱門","description":"用中文瀏覽 Product Hunt 熱門App，網站和產品","keywords":["buzzing","Product Hunt","熱門APP","發現APP"],"locale":"zh-Hant","social":null,"menuLinks":[{"name":"每週精選","url":"/zh-Hant/issues","external":null}]},{"title":"Product Hunt 人気の作品","description":"人気のProduct Hunt作品を日本語で閲覧","keywords":["buzzing","Product Hunt"],"locale":"ja","social":null,"menuLinks":[{"name":"毎週の選択","url":"/ja/issues","external":null}]}]}},"tagsGroup":{"group":[{"fieldValue":"3D Printing","totalCount":3},{"fieldValue":"APIs","totalCount":28},{"fieldValue":"Adventure Games","totalCount":1},{"fieldValue":"Advertising","totalCount":9},{"fieldValue":"Airbnb","totalCount":1},{"fieldValue":"Amazon","totalCount":3},{"fieldValue":"Analytics","totalCount":36},{"fieldValue":"Android","totalCount":51},{"fieldValue":"Anonymous","totalCount":1},{"fieldValue":"Apple","totalCount":11},{"fieldValue":"Apple Watch","totalCount":1},{"fieldValue":"Art","totalCount":12},{"fieldValue":"Artificial Intelligence","totalCount":85},{"fieldValue":"Audio and Voice ","totalCount":19},{"fieldValue":"Augmented Reality","totalCount":2},{"fieldValue":"Basketball","totalCount":1},{"fieldValue":"Beauty","totalCount":1},{"fieldValue":"Biking","totalCount":1},{"fieldValue":"Biohacking","totalCount":4},{"fieldValue":"Books","totalCount":8},{"fieldValue":"Bots","totalCount":8},{"fieldValue":"Branding","totalCount":8},{"fieldValue":"CSM Tools","totalCount":8},{"fieldValue":"Calendar and Scheduling","totalCount":14},{"fieldValue":"Cannabis","totalCount":1},{"fieldValue":"Cars","totalCount":3},{"fieldValue":"Charity and Giving","totalCount":3},{"fieldValue":"Chrome Extensions","totalCount":34},{"fieldValue":"Coffee","totalCount":2},{"fieldValue":"Cooking","totalCount":2},{"fieldValue":"Crowdfunding","totalCount":16},{"fieldValue":"Crypto","totalCount":71},{"fieldValue":"Customer communication","totalCount":19},{"fieldValue":"DJing","totalCount":1},{"fieldValue":"Dating","totalCount":1},{"fieldValue":"Design Books","totalCount":6},{"fieldValue":"Design Tools","totalCount":147},{"fieldValue":"Developer Tools","totalCount":222},{"fieldValue":"Dogs","totalCount":2},{"fieldValue":"E-Commerce","totalCount":53},{"fieldValue":"Education","totalCount":43},{"fieldValue":"Email","totalCount":17},{"fieldValue":"Email Marketing","totalCount":13},{"fieldValue":"Email Newsletters","totalCount":22},{"fieldValue":"Emoji","totalCount":1},{"fieldValue":"Events","totalCount":10},{"fieldValue":"Facebook","totalCount":3},{"fieldValue":"Fashion","totalCount":2},{"fieldValue":"FemTech","totalCount":1},{"fieldValue":"Fintech","totalCount":53},{"fieldValue":"Football","totalCount":1},{"fieldValue":"Freelance","totalCount":12},{"fieldValue":"Funny","totalCount":12},{"fieldValue":"Funny Games","totalCount":2},{"fieldValue":"Games","totalCount":16},{"fieldValue":"GitHub","totalCount":33},{"fieldValue":"Google","totalCount":7},{"fieldValue":"Green Tech","totalCount":3},{"fieldValue":"Growth Hacking","totalCount":15},{"fieldValue":"Growth Hacks ","totalCount":5},{"fieldValue":"Hardware","totalCount":13},{"fieldValue":"Health and Fitness","totalCount":30},{"fieldValue":"Hiring and Recruiting","totalCount":34},{"fieldValue":"Home","totalCount":11},{"fieldValue":"Icons","totalCount":7},{"fieldValue":"Indie Games","totalCount":1},{"fieldValue":"Instagram","totalCount":10},{"fieldValue":"Internet of Things","totalCount":8},{"fieldValue":"Investing","totalCount":34},{"fieldValue":"Kids","totalCount":2},{"fieldValue":"Learn a Language","totalCount":4},{"fieldValue":"Legal","totalCount":2},{"fieldValue":"Mac","totalCount":22},{"fieldValue":"Mac Menu Bar Apps","totalCount":10},{"fieldValue":"Maker Tools ","totalCount":9},{"fieldValue":"Maps","totalCount":4},{"fieldValue":"Marketing","totalCount":135},{"fieldValue":"Meditation","totalCount":2},{"fieldValue":"Medium","totalCount":1},{"fieldValue":"Meetings","totalCount":18},{"fieldValue":"Messaging","totalCount":9},{"fieldValue":"Money ","totalCount":25},{"fieldValue":"Movies","totalCount":4},{"fieldValue":"Moving and Storage","totalCount":1},{"fieldValue":"Music","totalCount":15},{"fieldValue":"Netflix","totalCount":1},{"fieldValue":"News","totalCount":13},{"fieldValue":"No-Code","totalCount":57},{"fieldValue":"Nomad Lifestyle","totalCount":9},{"fieldValue":"Note","totalCount":6},{"fieldValue":"Open Source","totalCount":32},{"fieldValue":"Outdoors","totalCount":1},{"fieldValue":"Parenting","totalCount":1},{"fieldValue":"Payment","totalCount":5},{"fieldValue":"Pets","totalCount":1},{"fieldValue":"Photography","totalCount":16},{"fieldValue":"Photoshop","totalCount":2},{"fieldValue":"Politics","totalCount":1},{"fieldValue":"Privacy","totalCount":7},{"fieldValue":"Product Hunt","totalCount":3},{"fieldValue":"ProductHunt","totalCount":1105},{"fieldValue":"Productivity","totalCount":400},{"fieldValue":"Prototyping","totalCount":5},{"fieldValue":"Public Relations","totalCount":1},{"fieldValue":"Quantified Self","totalCount":1},{"fieldValue":"Remote Work Tools","totalCount":33},{"fieldValue":"Robots","totalCount":1},{"fieldValue":"SEO Tools","totalCount":10},{"fieldValue":"SaaS","totalCount":97},{"fieldValue":"Safari Extensions","totalCount":3},{"fieldValue":"Sales","totalCount":33},{"fieldValue":"Side Projects","totalCount":10},{"fieldValue":"Sketch","totalCount":1},{"fieldValue":"Slack","totalCount":13},{"fieldValue":"Sneakers and Shoes","totalCount":1},{"fieldValue":"Social Impact ","totalCount":4},{"fieldValue":"Social Media Tools","totalCount":49},{"fieldValue":"Software Engineering","totalCount":16},{"fieldValue":"SoundCloud","totalCount":2},{"fieldValue":"Sports","totalCount":8},{"fieldValue":"Spotify","totalCount":4},{"fieldValue":"Spreadsheets","totalCount":6},{"fieldValue":"Startup Books","totalCount":9},{"fieldValue":"Startup Lessons ","totalCount":14},{"fieldValue":"TV","totalCount":1},{"fieldValue":"Task Management","totalCount":14},{"fieldValue":"Tech","totalCount":319},{"fieldValue":"Telegram","totalCount":3},{"fieldValue":"Tennis","totalCount":1},{"fieldValue":"Text Editors","totalCount":4},{"fieldValue":"Time Tracking","totalCount":2},{"fieldValue":"Transportation","totalCount":3},{"fieldValue":"Travel","totalCount":8},{"fieldValue":"Twitter","totalCount":14},{"fieldValue":"Typography","totalCount":1},{"fieldValue":"User Experience","totalCount":55},{"fieldValue":"Venture Capital","totalCount":10},{"fieldValue":"Video Streaming","totalCount":21},{"fieldValue":"Virtual Assistants","totalCount":5},{"fieldValue":"Virtual Reality","totalCount":2},{"fieldValue":"Wallpaper","totalCount":1},{"fieldValue":"Wearables","totalCount":2},{"fieldValue":"Weather Apps","totalCount":1},{"fieldValue":"Web App","totalCount":97},{"fieldValue":"Windows","totalCount":3},{"fieldValue":"WordPress","totalCount":3},{"fieldValue":"Writing Tools","totalCount":18},{"fieldValue":"YouTube","totalCount":9},{"fieldValue":"iMessage Apps","totalCount":1},{"fieldValue":"iPad","totalCount":6},{"fieldValue":"iPhone","totalCount":97}]},"allBlogPost":{"nodes":[{"id":"PhPost-313921","excerpt":"The first carbon-neutral video communication platform worldwide Crewdle offers a serverless digital ecosystem that is secure and sustainable, thanks to peer-to-peer technology. The perfect solution to help save the planet, one conversation at a time.","slug":"/ph/crewdle","title":"Crewdle - 100% encrypted and green videoconferences made simple","date":"October 01, 2021","dateISO":"2021-10-01T08:13:56.602Z","datetime":"2021-10-01 08:13","tags":["Meetings","Green Tech","Tech","Remote Work Tools","ProductHunt"],"image":null,"imageAlt":null,"__typename":"SocialMediaPost","provider":"Product Hunt","thirdPartyId":"313921","url":"https://www.producthunt.com/posts/crewdle?utm_campaign=producthunt-api&utm_medium=api-v2&utm_source=Application%3A+Buzzing+%28ID%3A+41381%29","originalUrl":"https://www.producthunt.com/r/a2459d1ada4623?utm_campaign=producthunt-api&utm_medium=api-v2&utm_source=Application%3A+Buzzing+%28ID%3A+41381%29","imageRemote":null,"video":{"url":"https://www.youtube.com/watch?v=4d9R8AJTYpc","embed":null,"width":null,"height":null},"channel":null,"channelUrl":null,"author":"Vincent Lamanna","authorUrl":"https://www.producthunt.com/@vincent_lamanna?utm_campaign=producthunt-api&utm_medium=api-v2&utm_source=Application%3A+Buzzing+%28ID%3A+41381%29","authorImageRemote":null,"authorImage":null,"authorSlug":null,"score":580,"views":null,"sharedCount":null,"likeCount":null,"sharedContent":null,"parent":{"localize":[{"description":"世界初のカーボンニュートラルなビデオコミュニケーションプラットフォーム Crewdleは、ピアツーピア技術により、安全で持続可能なサーバーレスのデジタルエコシステムを提供しています。一度に一つの会話で地球を救うことができる完璧なソリューションです。","tagline":"100％暗号化されたグリーンビデオ会議を簡単に実現","locale":"ja"},{"description":"全球第一个碳中和视频通信平台Crewdle提供了一个无服务器的数字生态系统，由于点对点技术，它是安全和可持续的。这是一个完美的解决方案，可以帮助拯救地球，一次一个对话。","tagline":"100%加密和绿色视频会议变得简单","locale":"zh"},{"description":"全球第一個碳中和視頻通信平臺Crewdle提供了一個無服務器的數字生態系統，由於點對點技術，它是安全和可持續的。這是一個完美的解決方案，可以幫助拯救地球，一次一個對話。","tagline":"100%加密和綠色視頻會議變得簡單","locale":"zh-Hant"}]}},{"id":"PhPost-314142","excerpt":"Intrro is productizing the ability to learn who are the top performers in your company’s network—so you can hire more from recommendations.","slug":"/ph/intrro","title":"Intrro - The fastest way to get employee referrals","date":"October 01, 2021","dateISO":"2021-10-01T08:13:56.602Z","datetime":"2021-10-01 08:13","tags":["Hiring and Recruiting","ProductHunt"],"image":null,"imageAlt":null,"__typename":"SocialMediaPost","provider":"Product Hunt","thirdPartyId":"314142","url":"https://www.producthunt.com/posts/intrro?utm_campaign=producthunt-api&utm_medium=api-v2&utm_source=Application%3A+Buzzing+%28ID%3A+41381%29","originalUrl":"https://www.producthunt.com/r/64be7c95be3ce0?utm_campaign=producthunt-api&utm_medium=api-v2&utm_source=Application%3A+Buzzing+%28ID%3A+41381%29","imageRemote":null,"video":{"url":"https://youtu.be/fXZmmaQIhvA","embed":null,"width":null,"height":null},"channel":null,"channelUrl":null,"author":"Neel Jamie Shah","authorUrl":"https://www.producthunt.com/@neel_shah3?utm_campaign=producthunt-api&utm_medium=api-v2&utm_source=Application%3A+Buzzing+%28ID%3A+41381%29","authorImageRemote":null,"authorImage":null,"authorSlug":null,"score":534,"views":null,"sharedCount":null,"likeCount":null,"sharedContent":null,"parent":{"localize":[{"description":"イントロは、会社のネットワークの中で誰がトップパフォーマーなのかを知る機能を製品化しており、推薦された人材をより多く採用できるようになります。","tagline":"社員の紹介を得るための最速の方法","locale":"ja"},{"description":"Intrro正在将了解谁是你公司网络中表现最好的人的能力产品化，因此你可以通过推荐来雇用更多的人。","tagline":"获得员工推荐的最快方式","locale":"zh"},{"description":"Intrro正在將瞭解誰是你公司網絡中表現最好的人的能力產品化，因此你可以通過推薦來僱用更多的人。","tagline":"獲得員工推薦的最快方式","locale":"zh-Hant"}]}},{"id":"PhPost-314392","excerpt":"All you need to build your own SaaS at one place. Covers everything right from starting it from scratch to selling it. Resources and inspirations included.","slug":"/ph/micro-saas","title":"Micro-SaaS - All you need to build bootstrap SaaS at one place","date":"October 01, 2021","dateISO":"2021-10-01T08:13:56.602Z","datetime":"2021-10-01 08:13","tags":["SaaS","Developer Tools","Tech","ProductHunt"],"image":null,"imageAlt":null,"__typename":"SocialMediaPost","provider":"Product Hunt","thirdPartyId":"314392","url":"https://www.producthunt.com/posts/micro-saas?utm_campaign=producthunt-api&utm_medium=api-v2&utm_source=Application%3A+Buzzing+%28ID%3A+41381%29","originalUrl":"https://www.producthunt.com/r/06fc8d569a51e1?utm_campaign=producthunt-api&utm_medium=api-v2&utm_source=Application%3A+Buzzing+%28ID%3A+41381%29","imageRemote":"https://ph-files.imgix.net/451bd04f-80e0-4557-a2fc-0c08c2e01406.png?auto=format","video":null,"channel":null,"channelUrl":null,"author":"Rishabh garg","authorUrl":"https://www.producthunt.com/@rishabh_garg6?utm_campaign=producthunt-api&utm_medium=api-v2&utm_source=Application%3A+Buzzing+%28ID%3A+41381%29","authorImageRemote":null,"authorImage":null,"authorSlug":null,"score":544,"views":null,"sharedCount":null,"likeCount":null,"sharedContent":null,"parent":{"localize":[{"description":"独自のSaaSを構築するために必要なものがすべて揃っています。ゼロからのスタートから販売まで、すべてを網羅しています。リソースやインスピレーションも含まれています。","tagline":"ブートストラップ型のSaaSを構築するために必要なものがすべて揃っています。","locale":"ja"},{"description":"你需要在一个地方建立你自己的SaaS。涵盖了从零开始到销售的一切。包括资源和灵感。","tagline":"你需要在一个地方建立引导式SaaS的所有内容","locale":"zh"},{"description":"你需要在一個地方建立你自己的SaaS。涵蓋了從零開始到銷售的一切。包括資源和靈感。","tagline":"你需要在一個地方建立引導式SaaS的所有內容","locale":"zh-Hant"}]}},{"id":"PhPost-314316","excerpt":"No need to know any technical stuff to be able to use NFTs! • Share NFTs that are in your wallet in a beautiful way • Browse the most popular, trending or recently sold NFTs • View your NFTs in AR mode • Learn about NFTs with the Help section","slug":"/ph/nfts","title":"NFTs - View and share crypto NFTs in AR","date":"October 01, 2021","dateISO":"2021-10-01T07:07:18.123Z","datetime":"2021-10-01 07:07","tags":["iPhone","Crypto","Artificial Intelligence","ProductHunt"],"image":null,"imageAlt":null,"__typename":"SocialMediaPost","provider":"Product Hunt","thirdPartyId":"314316","url":"https://www.producthunt.com/posts/nfts?utm_campaign=producthunt-api&utm_medium=api-v2&utm_source=Application%3A+Buzzing+%28ID%3A+41381%29","originalUrl":"https://www.producthunt.com/r/1b3ea691db0980?utm_campaign=producthunt-api&utm_medium=api-v2&utm_source=Application%3A+Buzzing+%28ID%3A+41381%29","imageRemote":"https://ph-files.imgix.net/0f78a38d-5a55-4ed3-af06-9ffd0a3186b9.jpeg?auto=format","video":null,"channel":null,"channelUrl":null,"author":"Palak Zatakia","authorUrl":"https://www.producthunt.com/@palakzatakia?utm_campaign=producthunt-api&utm_medium=api-v2&utm_source=Application%3A+Buzzing+%28ID%3A+41381%29","authorImageRemote":null,"authorImage":null,"authorSlug":null,"score":63,"views":null,"sharedCount":null,"likeCount":null,"sharedContent":null,"parent":{"localize":[{"description":"技術的な知識がなくても、NFTを使うことができます。- お財布の中のNFTを美しくシェア - 人気のNFT、トレンドのNFT、最近販売されたNFTを閲覧 - ARモードでNFTを表示 - ヘルプセクションでNFTについて学ぶ","tagline":"ARでの暗号化されたNFTの表示と共有","locale":"ja"},{"description":"不需要知道任何技术性的东西就能使用NFTs! - 以漂亮的方式分享你钱包里的NFT - 浏览最受欢迎、最流行或最近售出的NFT - 以AR模式查看你的NFT - 通过帮助部分了解NFT","tagline":"在AR中查看和分享加密的NFTs","locale":"zh"},{"description":"不需要知道任何技術性的東西就能使用NFTs! - 以漂亮的方式分享你錢包裏的NFT - 瀏覽最受歡迎、最流行或最近售出的NFT - 以AR模式查看你的NFT - 通過幫助部分了解NFT","tagline":"在AR中查看和分享加密的NFTs","locale":"zh-Hant"}]}},{"id":"PhPost-313918","excerpt":"NextDrop is the best resource to discover all upcoming NFT projects on Ethereum, Solana, and other chains. Visit the website or subscribe to the newsletter to receive every day a list of upcoming drops. Postlaunch? Hourly stats for hundreds of projects!","slug":"/ph/nextdrop","title":"NextDrop - All the upcoming NFT drops and more","date":"October 01, 2021","dateISO":"2021-10-01T03:24:12.613Z","datetime":"2021-10-01 03:24","tags":["Art","Crypto","ProductHunt"],"image":null,"imageAlt":null,"__typename":"SocialMediaPost","provider":"Product Hunt","thirdPartyId":"313918","url":"https://www.producthunt.com/posts/nextdrop?utm_campaign=producthunt-api&utm_medium=api-v2&utm_source=Application%3A+Buzzing+%28ID%3A+41381%29","originalUrl":"https://www.producthunt.com/r/1d47479b3d1467?utm_campaign=producthunt-api&utm_medium=api-v2&utm_source=Application%3A+Buzzing+%28ID%3A+41381%29","imageRemote":"https://ph-files.imgix.net/05c96010-ab31-44c3-aecb-f0cbaca3022a.png?auto=format","video":null,"channel":null,"channelUrl":null,"author":"Davide Di Cillo","authorUrl":"https://www.producthunt.com/@davide_di_cillo?utm_campaign=producthunt-api&utm_medium=api-v2&utm_source=Application%3A+Buzzing+%28ID%3A+41381%29","authorImageRemote":null,"authorImage":null,"authorSlug":null,"score":95,"views":null,"sharedCount":null,"likeCount":null,"sharedContent":null,"parent":{"localize":[{"description":"NextDropは、Ethereum、Solana、およびその他のチェーン上で今後行われるすべてのNFTプロジェクトを発見するための最高のリソースです。ウェブサイトにアクセスするか、ニュースレターを購読すると、今後のドロップのリストを毎日受け取ることができます。ポストローンチ？何百ものプロジェクトの1時間ごとの統計情報です","tagline":"今後のNFTの展開などについて","locale":"ja"},{"description":"NextDrop是发现Ethereum、Solana和其他链上所有即将到来的NFT项目的最佳资源。访问网站或订阅新闻通讯，每天都能收到即将发布的项目列表。发售后？上百个项目的每小时统计资料!","tagline":"所有即将到来的NFT下降和更多","locale":"zh"},{"description":"NextDrop是發現Ethereum、Solana和其他鏈上所有即將到來的NFT項目的最佳資源。訪問網站或訂閱新聞通訊，每天都能收到即將發佈的項目列表。發售後？上百個項目的每小時統計資料!","tagline":"所有即將到來的NFT下降和更多","locale":"zh-Hant"}]}}]}},"pageContext":{"basePath":"/","pageType":"home","tagsFilter":{"date":{"gt":"2000-12-25T10:54:58.000Z"}},"filter":{"date":{"gt":"2000-12-25T10:54:58.000Z"}},"limit":50,"skip":1100,"totalPages":23,"total":1105,"currentPage":23,"maxWidth":1024,"maxHeight":512,"siteMetadata":null,"locale":"en","hrefLang":"en-US","originalPath":"/page/23","dateFormat":"MM/DD/YYYY"}},
    "staticQueryHashes": ["1239077767","2744905544","3025052997","3280999885"]}